<?xml version="1.0" encoding="UTF-8" standalone="no"?>
<svg
   width="330.45831mm"
   height="199.45628mm"
   viewBox="0 0 1248.9763 753.85052"
   version="1.1"
   id="svg504"
   sodipodi:docname="Chirality_with_hands.svg"
   inkscape:version="1.2.2 (b0a8486541, 2022-12-01)"
   inkscape:export-filename="Chirality_with_hands.pdf"
   inkscape:export-xdpi="95.636993"
   inkscape:export-ydpi="95.636993"
   xml:space="preserve"
   xmlns:inkscape="http://www.inkscape.org/namespaces/inkscape"
   xmlns:sodipodi="http://sodipodi.sourceforge.net/DTD/sodipodi-0.dtd"
   xmlns:xlink="http://www.w3.org/1999/xlink"
   xmlns="http://www.w3.org/2000/svg"
   xmlns:svg="http://www.w3.org/2000/svg"
   xmlns:a="http://ns.adobe.com/AdobeSVGViewerExtensions/3.0/"
   xmlns:i="http://ns.adobe.com/AdobeIllustrator/10.0/"><sodipodi:namedview
     id="namedview506"
     pagecolor="#ffffff"
     bordercolor="#666666"
     borderopacity="1.0"
     inkscape:showpageshadow="2"
     inkscape:pageopacity="0.0"
     inkscape:pagecheckerboard="0"
     inkscape:deskcolor="#d1d1d1"
     showgrid="false"
     inkscape:zoom="1"
     inkscape:cx="597.5"
     inkscape:cy="397.5"
     inkscape:window-width="1920"
     inkscape:window-height="1043"
     inkscape:window-x="0"
     inkscape:window-y="0"
     inkscape:window-maximized="1"
     inkscape:current-layer="svg504"
     inkscape:document-units="mm" /><defs
     id="defs379"><linearGradient
       id="a"
       gradientTransform="matrix(0.9971,0,0,0.6399,320.4,-46.58)"
       gradientUnits="userSpaceOnUse"
       x1="327.20001"
       x2="327.20001"
       y1="567.79999"
       y2="523.20001"><stop
         offset="0"
         id="stop336" /><stop
         offset=".49"
         stop-color="#bfbfbf"
         id="stop338" /><stop
         offset=".71"
         stop-color="#fff"
         id="stop340" /><stop
         offset="1"
         stop-color="#888"
         id="stop342" /></linearGradient><clipPath
       id="b"><path
         d="m 261.7,148.6 c 6.1,0 11,-4.9 11,-10.9 0,-6.1 -4.9,-11 -11,-11 l -117.2,-50 c 21.6,0 39.2,28.4 39.2,63.5 0,35.1 -17.6,63.5 -39.2,63.5 z"
         id="path345" /></clipPath><radialGradient
       id="c"
       cx="342.60001"
       cy="389.70001"
       gradientTransform="matrix(1.384,0.799,-0.8336,1.444,193.3,-446.7)"
       gradientUnits="userSpaceOnUse"
       r="25.219999"><stop
         offset="0"
         stop-color="#fff"
         id="stop348" /><stop
         offset=".5"
         stop-color="#eb7548"
         id="stop350" /><stop
         offset="1"
         stop-color="#7c0000"
         id="stop352" /></radialGradient><radialGradient
       id="d"
       cx="412.60001"
       cy="430.29999"
       gradientTransform="matrix(1.395,0.4125,-0.3858,1.305,2.92,-301.5)"
       gradientUnits="userSpaceOnUse"
       r="8.6700001"><stop
         offset="0"
         stop-color="#fff"
         id="stop355" /><stop
         offset="1"
         stop-color="#999"
         id="stop357" /></radialGradient><radialGradient
       id="e"
       cx="366.79999"
       cy="429.39999"
       gradientTransform="matrix(1.002,0.2684,-0.2665,0.9946,113.8,-96.16)"
       gradientUnits="userSpaceOnUse"
       r="12.45"><stop
         offset="0"
         stop-color="#ccc"
         id="stop360" /><stop
         offset="1"
         stop-color="#222"
         id="stop362" /></radialGradient><radialGradient
       id="f"
       cx="324.5"
       cy="430.10001"
       gradientTransform="matrix(1.384,0.3709,-0.4338,1.619,61.93,-386.5)"
       gradientUnits="userSpaceOnUse"
       r="23.120001"><stop
         offset="0"
         stop-color="#fff"
         id="stop365" /><stop
         offset=".64"
         stop-color="#2ca0a0"
         id="stop367" /><stop
         offset="1"
         stop-color="#333"
         id="stop369" /></radialGradient><radialGradient
       id="g"
       cx="335.5"
       cy="476.10001"
       gradientTransform="matrix(1.55,0.2883,-0.2884,1.55,-47.07,-358.6)"
       gradientUnits="userSpaceOnUse"
       r="17.030001"><stop
         offset="0"
         stop-color="#fff"
         id="stop372" /><stop
         offset=".693"
         stop-color="#5429a3"
         id="stop374" /><stop
         offset="1"
         stop-color="#333"
         id="stop376" /></radialGradient><linearGradient
       inkscape:collect="always"
       xlink:href="#a"
       id="linearGradient1224"
       gradientUnits="userSpaceOnUse"
       gradientTransform="matrix(0.9971,0,0,0.6399,320.4,-46.58)"
       x1="327.20001"
       y1="567.79999"
       x2="327.20001"
       y2="523.20001" /><linearGradient
       inkscape:collect="always"
       xlink:href="#a"
       id="linearGradient1226"
       gradientUnits="userSpaceOnUse"
       gradientTransform="matrix(0.9971,0,0,0.6399,320.4,-46.58)"
       x1="327.20001"
       y1="567.79999"
       x2="327.20001"
       y2="523.20001" /><linearGradient
       inkscape:collect="always"
       xlink:href="#linearGradient5726"
       id="linearGradient22101"
       gradientUnits="userSpaceOnUse"
       gradientTransform="matrix(0.8,0,0,0.8,-34.8284,-61.1108)"
       x1="43.5355"
       y1="118.0735"
       x2="43.5355"
       y2="92.333496" /><linearGradient
       y2="13.1309"
       x2="28.721701"
       y1="32.972698"
       x1="28.721701"
       gradientUnits="userSpaceOnUse"
       id="linearGradient5726"><stop
         id="stop5690"
         style="stop-color:#FFFFFF"
         offset="0" /><stop
         id="stop5692"
         style="stop-color:#FEFCFC"
         offset="0.0051" /><stop
         id="stop5694"
         style="stop-color:#E6A4A4"
         offset="0.1497" /><stop
         id="stop5696"
         style="stop-color:#D35E5E"
         offset="0.277" /><stop
         id="stop5698"
         style="stop-color:#C62B2B"
         offset="0.3823" /><stop
         id="stop5700"
         style="stop-color:#BD0C0C"
         offset="0.4615" /><stop
         id="stop5702"
         style="stop-color:#BA0000"
         offset="0.5056" /><stop
         id="stop5704"
         style="stop-color:#D86E6E"
         offset="0.7077" /><stop
         id="stop5706"
         style="stop-color:#F4D6D6"
         offset="0.9099" /><stop
         id="stop5708"
         style="stop-color:#FFFFFF"
         offset="1" /><a:midPointStop
         style="stop-color:#FFFFFF"
         offset="0" /><a:midPointStop
         style="stop-color:#FFFFFF"
         offset="0.4222" /><a:midPointStop
         style="stop-color:#BA0000"
         offset="0.5056" /><a:midPointStop
         style="stop-color:#BA0000"
         offset="0.4773" /><a:midPointStop
         style="stop-color:#FFFFFF"
         offset="1" /></linearGradient><linearGradient
       inkscape:collect="always"
       xlink:href="#linearGradient5726"
       id="linearGradient22101-5"
       gradientUnits="userSpaceOnUse"
       gradientTransform="matrix(0.8,0,0,0.8,-34.8284,-61.1108)"
       x1="43.5355"
       y1="118.0735"
       x2="43.5355"
       y2="92.333496" /><path
       id="sin"
       d="M 0,0 C 42,167 84,300 125,300"
       fill="none" /><use
       id="si"
       xlink:href="#sin"
       transform="scale(0.1,-0.1)" /><pattern
       id="test"
       width="10"
       height="10"
       patternUnits="userSpaceOnUse"><rect
         width="10"
         height="10"
         fill="none"
         stroke="blue"
         stroke-width="0.15"
         id="rect27128" /></pattern><g
       id="hf"><use
         xlink:href="#si"
         id="use27131" /><use
         xlink:href="#si"
         transform="matrix(-1,0,0,1,25,0)"
         id="use27133" /></g><g
       id="gz"><use
         xlink:href="#hf"
         id="use27136" /><use
         xlink:href="#hf"
         transform="rotate(180,25,0)"
         id="use27138" /></g><filter
       id="filter3861"><feGaussianBlur
         id="feGaussianBlur3863"
         stdDeviation="3.1580457" /></filter><filter
       id="filter3865"
       y="-0.073679"
       width="1.559"
       x="-0.27950001"
       height="1.1474"><feGaussianBlur
         id="feGaussianBlur3867"
         stdDeviation="3.1580457" /></filter><filter
       id="filter3879"><feGaussianBlur
         id="feGaussianBlur3881"
         stdDeviation="0.34066988" /></filter><linearGradient
       id="linearGradient6422"
       y2="-412.13"
       gradientUnits="userSpaceOnUse"
       x2="1102.5"
       gradientTransform="matrix(-1.0013,0,0,0.98929,1107.9,6.3774)"
       y1="51.727001"
       x1="102.37"><stop
         id="stop6418"
         style="stop-color:#c4c4c4"
         offset="0" /><stop
         id="stop6420"
         style="stop-color:#ffffff"
         offset="1" /></linearGradient><linearGradient
       id="linearGradient6422-7"
       y2="-412.13"
       gradientUnits="userSpaceOnUse"
       x2="1102.5"
       gradientTransform="matrix(-1.0013,0,0,0.98929,1107.9,6.3774)"
       y1="51.727001"
       x1="102.37"><stop
         id="stop6418-9"
         style="stop-color:#c4c4c4"
         offset="0" /><stop
         id="stop6420-2"
         style="stop-color:#ffffff"
         offset="1" /></linearGradient><linearGradient
       id="linearGradient6422-7-9"
       y2="-412.13"
       gradientUnits="userSpaceOnUse"
       x2="1102.5"
       gradientTransform="matrix(-1.0013,0,0,0.98929,1107.9,6.3774)"
       y1="51.727001"
       x1="102.37"><stop
         id="stop6418-9-6"
         style="stop-color:#c4c4c4"
         offset="0" /><stop
         id="stop6420-2-2"
         style="stop-color:#ffffff"
         offset="1" /></linearGradient><linearGradient
       id="linearGradient6422-7-8"
       y2="-412.13"
       gradientUnits="userSpaceOnUse"
       x2="1102.5"
       gradientTransform="matrix(-1.0013,0,0,0.98929,1107.9,6.3774)"
       y1="51.727001"
       x1="102.37"><stop
         id="stop6418-9-2"
         style="stop-color:#c4c4c4"
         offset="0" /><stop
         id="stop6420-2-9"
         style="stop-color:#ffffff"
         offset="1" /></linearGradient></defs><g
     id="g1326"
     transform="rotate(-90,485.99974,273.34166)"><g
       id="h"
       clip-rule="evenodd"
       fill="#fcfcfc"
       stroke="#bbbbbb"
       stroke-linecap="round"
       stroke-linejoin="round"
       transform="matrix(3,0,0,3,-510,-997.4)"><path
         d="m 385.3,502.7 c -1,-5.9 1.7,-14.2 4.2,-19.3 10,-12.6 19.2,-25.3 21.5,-41.3 2.9,-1 1.8,-14.8 3.3,-18.4 2.4,-6.2 4.4,-14.4 1.7,-20.8 -0.5,-2.9 0.9,-7.5 -2.1,-13 -4.4,-3.5 -8.5,-0.2 -11.2,3 -4.3,5 -3.8,15.6 -4.2,24 -3,4.5 -4.1,8 -5.4,7.6 -0.2,-1.1 -0.4,-2.2 -0.5,-3.3 -3.1,-21.4 3.6,-44.3 2.5,-66.5 -0.1,-3.1 -0.1,-6.8 -2.4,-8.9 -2.4,-2.3 -6.9,-2.1 -8.9,0.9 -5.3,16.4 -5.9,33.6 -9.6,50.4 -0.4,0.3 -0.8,0.6 -1.2,0.8 -4.7,-20.4 0.1,-43.2 -10.5,-61.5 -1.6,-1.7 -5.2,-1.8 -7,0 -8,7.9 -1.3,22.4 -2,33 5.6,8.2 -13.4,9.7 -10.2,-2.1 -0.8,-7.7 -6.3,-27.2 -16.5,-17.6 -2.5,2.5 2.3,18.6 2.3,22.9 1.2,4.9 -0.6,16.4 -6.7,7.6 -1.9,-4.7 -6,-14 -10.1,-14.6 H 312 c -1.8,0 -4.1,1.3 -4.3,2 -4.2,15.7 8.7,32.3 12.3,46.6 0.4,14.5 5.4,32.8 4.7,41 -1.6,11.3 6.6,18.7 6.9,31.9 -2.5,3.8 -2.7,11 -3.4,15.1"
         stroke="#777777"
         id="path381" /><path
         d="m 416,402.9 c -1.1,0.6 -2.9,1.6 -4.5,1.2 -2.4,-2.6 -0.8,-10.3 2.5,-13.9"
         stroke="#777777"
         id="path383" /><path
         d="m 373,398.6 c 0,1 -0.2,1.6 0.5,2.2 3.8,2.8 10.9,4.3 15,6.9"
         id="path385" /><path
         d="m 382.9,444.8 c 9.8,-3 8.5,-12.5 10.3,-19.4 -0.9,3.6 1,18.7 5.4,18"
         id="path387" /><path
         d="m 338.5,494.7 c 3,1.5 6.6,2.9 9.9,2.9"
         id="path389" /><path
         d="m 368.8,497.7 c -6.9,0 -16,-1.8 -21.6,-3.2"
         id="path391" /><path
         d="m 343.1,493.6 c 4.4,0.6 9.8,1.3 13.8,0.8"
         id="path393" /><path
         d="m 390.3,482 c -13.2,7.5 -26.6,9.6 -29.9,-7.8 -0.3,-8.4 4.3,-18.9 11.9,-22.3"
         id="path395" /><path
         d="m 379.7,381.1 c 2.6,0.7 7.4,1 8.8,-0.2"
         id="path397" /><path
         d="m 380.8,383.5 c 2.4,-1.1 6.4,1 9.8,1.1"
         id="path399" /><path
         d="m 383.4,358.3 c 3.1,-0.7 5.4,0.5 7.6,1"
         id="path401" /><path
         d="m 399.1,417.6 c 1.1,1.5 5.3,2.6 5.2,1.8"
         id="path403" /><path
         d="m 354.6,356.3 c 3.3,-0.9 6.7,0 9.7,0.3"
         id="path405" /><path
         d="m 331.5,368.3 c 1.7,-2.5 4.8,-3.6 7.8,-3.9"
         id="path407" /><path
         d="m 311.2,384.1 c 1.7,-3 5.6,-3.5 9.3,-3.5"
         id="path409" /><path
         d="m 365.4,372.2 h -6.9"
         id="path411" /><path
         d="m 367,375.9 c -3,-0.1 -6.2,-0.3 -8.8,-0.7"
         id="path413" /><path
         d="m 389.4,482.6 c -10.2,6.2 -25.8,9.7 -29,-8.4 -1.5,-8.3 4.3,-18.9 11.9,-22.3"
         id="path415" /></g><use
       transform="matrix(-1,0,0,1,765,0)"
       xlink:href="#h"
       id="use418" /><rect
       fill="url(#a)"
       height="28.370001"
       opacity="0.8"
       transform="scale(-1,1)"
       width="209.5"
       x="-239.60001"
       y="287.79999"
       id="rect420"
       style="fill:url(#linearGradient1224)" /><rect
       fill="url(#a)"
       height="28.370001"
       opacity="0.8"
       width="209.5"
       x="525.40002"
       y="288.10001"
       id="rect422"
       style="fill:url(#linearGradient1226)" /><g
       stroke="#999999"
       stroke-width="0.64"
       id="g439"><circle
         id="i"
         cx="351.60001"
         cy="397.60001"
         fill="url(#c)"
         r="25.219999"
         transform="matrix(3.123,0,0,3.123,-850.4,-1064)"
         style="fill:url(#c)" /><circle
         id="j"
         cx="341.5"
         cy="482.10001"
         fill="url(#g)"
         r="17.030001"
         transform="matrix(3.083,0,0,3.083,-804.7,-1060)"
         style="fill:url(#g)" /><circle
         id="k"
         cx="415.70001"
         cy="434"
         fill="url(#d)"
         r="8.6700001"
         transform="matrix(3.173,0,0,3.173,-1285,-1075)"
         style="fill:url(#d)" /><circle
         id="l"
         cx="370.60001"
         cy="434"
         fill="url(#e)"
         r="12.45"
         transform="matrix(3.797,0,0,3.797,-1235,-1346)"
         style="fill:url(#e)" /><circle
         id="m"
         cx="333.39999"
         cy="438.5"
         fill="url(#f)"
         r="22.540001"
         transform="matrix(3.168,0,0,3.168,-766.3,-1087)"
         style="fill:url(#f)" /><use
         x="268.70001"
         xlink:href="#j"
         id="use429" /><use
         x="270.10001"
         xlink:href="#i"
         id="use431" /><use
         x="696.79999"
         xlink:href="#k"
         id="use433" /><use
         x="420.5"
         xlink:href="#l"
         id="use435" /><use
         x="185"
         xlink:href="#m"
         id="use437" /></g><g
       style="font-weight:bold;font-size:36px;font-family:Arial, sans-serif;stroke:#ffffff;stroke-width:1pt;stroke-opacity:0.5"
       id="g469"><text
         font-size="42px"
         x="270.38"
         y="317.32999"
         id="text441">R</text><text
         fill="#ffffff"
         font-size="39px"
         x="152.03"
         y="317.56"
         id="text443">C</text><text
         x="187.67"
         y="191.7"
         id="text445">COOH</text><text
         fill="#ffffff"
         x="208.17"
         y="443.91"
         id="text451"><tspan
           id="tspan447">NH</tspan><tspan
           dx="-1"
           dy="9"
           font-size="27px"
           id="tspan449">2</tspan></text><text
         font-size="33px"
         x="21.200001"
         y="314.72"
         id="text453">H</text><text
         font-size="42px"
         x="461.44"
         y="317.32999"
         id="text455">R</text><text
         fill="#ffffff"
         font-size="39px"
         x="584.96002"
         y="317.56"
         id="text457">C</text><text
         x="470.39999"
         y="191.7"
         id="text459">COOH</text><text
         fill="#ffffff"
         x="491.47"
         y="443.91"
         id="text465"><tspan
           id="tspan461">NH</tspan><tspan
           dx="-1"
           dy="9"
           font-size="27px"
           id="tspan463">2</tspan></text><text
         font-size="33px"
         x="720"
         y="314.72"
         id="text467">H</text></g><g
       id="n"
       clip-path="url(#b)"
       opacity="0.8"
       transform="matrix(-0.3805,0.6638,-0.6273,-0.3595,729.1,268.6)"><path
         d="M 174.1,168.3 290.7,137 175.9,175.6 c 0,0 -1.8,-7.3 -1.8,-7.3"
         fill="#dddddd"
         id="path471" /><path
         d="m 174.2,162.1 c 0,0 116.5,-25.1 116.5,-25.1 l -115,32.4 z"
         fill="#c8c8c8"
         id="path473" /><path
         d="M 174.3,156 290.7,136.9 175.4,163.3 Z"
         fill="#b4b4b4"
         id="path475" /><path
         d="m 174.4,149.9 116.3,-13 -115.5,20.2 z"
         fill="#a0a0a0"
         id="path477" /><path
         d="M 174.6,143.7 290.7,136.9 174.9,151 c 0,0 -0.3,-7.3 -0.3,-7.3"
         fill="#8c8c8c"
         id="path479" /><path
         d="m 174.7,137.6 116.1,-0.7 -116.1,8 z"
         fill="#787878"
         id="path481" /><path
         d="m 174.8,131.5 116,5.4 -116.4,1.8 z"
         fill="#646464"
         id="path483" /><path
         d="m 175,125.3 115.8,11.6 -116.7,-4.3 z"
         fill="#505050"
         id="path485" /><path
         d="M 175.1,119.2 290.8,136.9 173.9,126.4 Z"
         fill="#3c3c3c"
         id="path487" /><path
         d="M 175.2,113.1 290.8,136.9 173.6,120.3 Z"
         fill="#282828"
         id="path489" /><path
         d="m 175.3,106.9 115.5,30 -117.4,-22.8 c 0,0 1.9,-7.2 1.9,-7.2"
         fill="#141414"
         id="path491" /></g><use
       transform="matrix(0.4642,0.8857,0.8857,-0.4642,-370.3,-83.2)"
       xlink:href="#n"
       id="use494" /><use
       transform="matrix(0.2434,0.7564,-0.4629,0.4634,239.1,-288.6)"
       xlink:href="#n"
       id="use496" /><use
       transform="matrix(-0.2454,0.7557,0.4617,0.4646,527.4,-289)"
       xlink:href="#n"
       id="use498" /><use
       transform="matrix(0.9999,0.0134,0.0134,-0.9999,-4.11,595.9)"
       xlink:href="#n"
       id="use500" /><use
       transform="matrix(-1,0.0018,0.0018,1,764.6,-1.24)"
       xlink:href="#n"
       id="use502" /></g><g
     id="g22507"
     transform="rotate(-90,460.58879,466.6729)"><g
       style="display:inline;stroke-width:0.396569;enable-background:new"
       i:rgbTrio="#4F008000FFFF"
       i:dimmedPercent="50"
       i:layer="yes"
       id="g5721-2"
       transform="matrix(0,-2.5184593,2.5248049,0,321.06621,160.89057)"><g
         id="g5683-7"
         style="stroke-width:0.396569"><rect
           id="rect5685-0"
           height="12.756"
           width="56.693001"
           i:knockout="Off"
           y="0.375"
           x="0.375"
           style="fill:#302b33;stroke-width:0.396569" /><rect
           id="rect5687-9"
           height="12.756"
           width="56.693001"
           i:knockout="Off"
           y="32.973"
           x="0.375"
           style="fill:#302b33;stroke-width:0.396569" /><linearGradient
           y2="13.1309"
           x2="28.721701"
           y1="32.972698"
           x1="28.721701"
           gradientUnits="userSpaceOnUse"
           id="linearGradient21961"><stop
             id="stop21941"
             style="stop-color:#FFFFFF"
             offset="0" /><stop
             id="stop21943"
             style="stop-color:#FEFCFC"
             offset="0.0051" /><stop
             id="stop21945"
             style="stop-color:#E6A4A4"
             offset="0.1497" /><stop
             id="stop21947"
             style="stop-color:#D35E5E"
             offset="0.277" /><stop
             id="stop21949"
             style="stop-color:#C62B2B"
             offset="0.3823" /><stop
             id="stop21951"
             style="stop-color:#BD0C0C"
             offset="0.4615" /><stop
             id="stop21953"
             style="stop-color:#BA0000"
             offset="0.5056" /><stop
             id="stop21955"
             style="stop-color:#D86E6E"
             offset="0.7077" /><stop
             id="stop21957"
             style="stop-color:#F4D6D6"
             offset="0.9099" /><stop
             id="stop21959"
             style="stop-color:#FFFFFF"
             offset="1" /><a:midPointStop
             style="stop-color:#FFFFFF"
             offset="0" /><a:midPointStop
             style="stop-color:#FFFFFF"
             offset="0.4222" /><a:midPointStop
             style="stop-color:#BA0000"
             offset="0.5056" /><a:midPointStop
             style="stop-color:#BA0000"
             offset="0.4773" /><a:midPointStop
             style="stop-color:#FFFFFF"
             offset="1" /></linearGradient><rect
           id="rect5710-3"
           height="19.841999"
           width="56.693001"
           i:knockout="Off"
           y="13.131"
           x="0.375"
           style="fill:url(#linearGradient22101);fill-opacity:1;stroke:#000000;stroke-width:0.297427" /><rect
           id="rect5712-6"
           height="39.686001"
           width="4.2519999"
           i:knockout="Off"
           y="3.2090001"
           x="57.068001"
           style="stroke:#000000;stroke-width:0.297427" /><rect
           id="rect5714-0"
           height="45.354"
           width="56.693001"
           i:knockout="Off"
           y="0.375"
           x="0.375"
           style="fill:none;stroke:#000000;stroke-width:0.297427" /></g></g></g><path
     style="display:inline;fill:none;stroke:#ff0000;stroke-width:8;stroke-linecap:round;stroke-linejoin:miter;stroke-miterlimit:4;stroke-dasharray:none;stroke-opacity:1;enable-background:new"
     d="M 157.37892,548.0009 H 305.90175"
     id="path4642"
     sodipodi:nodetypes="cc" /><g
     id="g22507-5"
     transform="matrix(0,1,1,0,-6.0841102,-173.41115)"><g
       style="display:inline;stroke-width:0.396569;enable-background:new"
       i:rgbTrio="#4F008000FFFF"
       i:dimmedPercent="50"
       i:layer="yes"
       id="g5721-2-5"
       transform="matrix(0,-2.5184593,2.5248049,0,321.06621,160.89057)"><g
         id="g5683-7-4"
         style="stroke-width:0.396569"><rect
           id="rect5685-0-7"
           height="12.756"
           width="56.693001"
           i:knockout="Off"
           y="0.375"
           x="0.375"
           style="fill:#302b33;stroke-width:0.396569" /><rect
           id="rect5687-9-6"
           height="12.756"
           width="56.693001"
           i:knockout="Off"
           y="32.973"
           x="0.375"
           style="fill:#302b33;stroke-width:0.396569" /><linearGradient
           y2="13.1309"
           x2="28.721701"
           y1="32.972698"
           x1="28.721701"
           gradientUnits="userSpaceOnUse"
           id="linearGradient23018"><stop
             id="stop21941-5"
             style="stop-color:#FFFFFF"
             offset="0" /><stop
             id="stop21943-6"
             style="stop-color:#FEFCFC"
             offset="0.0051" /><stop
             id="stop21945-9"
             style="stop-color:#E6A4A4"
             offset="0.1497" /><stop
             id="stop21947-3"
             style="stop-color:#D35E5E"
             offset="0.277" /><stop
             id="stop21949-7"
             style="stop-color:#C62B2B"
             offset="0.3823" /><stop
             id="stop21951-4"
             style="stop-color:#BD0C0C"
             offset="0.4615" /><stop
             id="stop21953-5"
             style="stop-color:#BA0000"
             offset="0.5056" /><stop
             id="stop21955-2"
             style="stop-color:#D86E6E"
             offset="0.7077" /><stop
             id="stop21957-5"
             style="stop-color:#F4D6D6"
             offset="0.9099" /><stop
             id="stop21959-4"
             style="stop-color:#FFFFFF"
             offset="1" /><a:midPointStop
             style="stop-color:#FFFFFF"
             offset="0" /><a:midPointStop
             style="stop-color:#FFFFFF"
             offset="0.4222" /><a:midPointStop
             style="stop-color:#BA0000"
             offset="0.5056" /><a:midPointStop
             style="stop-color:#BA0000"
             offset="0.4773" /><a:midPointStop
             style="stop-color:#FFFFFF"
             offset="1" /></linearGradient><rect
           id="rect5710-3-7"
           height="19.841999"
           width="56.693001"
           i:knockout="Off"
           y="13.131"
           x="0.375"
           style="fill:url(#linearGradient22101-5);fill-opacity:1;stroke:#000000;stroke-width:0.297427" /><rect
           id="rect5712-6-4"
           height="39.686001"
           width="4.2519999"
           i:knockout="Off"
           y="3.2090001"
           x="57.068001"
           style="stroke:#000000;stroke-width:0.297427" /><rect
           id="rect5714-0-4"
           height="45.354"
           width="56.693001"
           i:knockout="Off"
           y="0.375"
           x="0.375"
           style="fill:none;stroke:#000000;stroke-width:0.297427" /></g></g></g><path
     style="display:inline;fill:none;stroke:#ff0000;stroke-width:8;stroke-linecap:round;stroke-linejoin:miter;stroke-miterlimit:4;stroke-dasharray:none;stroke-opacity:1;enable-background:new"
     d="M 157.37892,207.91989 H 305.90175"
     id="path4642-3"
     sodipodi:nodetypes="cc" /><g
     inkscape:groupmode="layer"
     id="layer6"
     inkscape:label="height"
     transform="matrix(0.75424724,-0.75424724,0.75424724,0.75424724,853.04856,612.25632)" /><g
     inkscape:groupmode="layer"
     id="layer4"
     inkscape:label="width"
     transform="matrix(0.75424724,-0.75424724,0.75424724,0.75424724,853.04856,612.25632)" /><g
     inkscape:groupmode="layer"
     id="layer2"
     inkscape:label="length"
     style="display:inline"
     transform="matrix(0.75424724,-0.75424724,0.75424724,0.75424724,853.04856,612.25632)" /><g
     inkscape:groupmode="layer"
     id="layer6-4"
     inkscape:label="height"
     transform="matrix(0.75424724,0.75424724,-0.75424724,0.75424724,849.35742,545.15568)" /><g
     inkscape:groupmode="layer"
     id="layer4-4"
     inkscape:label="width"
     transform="matrix(0.75424724,0.75424724,-0.75424724,0.75424724,849.35742,545.15568)" /><g
     inkscape:groupmode="layer"
     id="layer2-4"
     inkscape:label="length"
     style="display:inline"
     transform="matrix(0.75424724,0.75424724,-0.75424724,0.75424724,849.35742,545.15568)" /><g
     id="g28415-8"
     transform="matrix(6.0896051,8.1191449e-4,8.1191449e-4,6.0896051,61.488565,-396.48956)"
     style="stroke-width:0.620652"><g
       id="g27169-4"
       transform="matrix(0.26458333,0,0,0.26458333,79.705146,167.66049)"
       style="stroke-width:0.620652"><rect
         width="100"
         height="100"
         fill="none"
         y="-50"
         id="rect27143-5"
         x="0"
         style="stroke-width:0.564169" /><g
         stroke="#ff0000"
         stroke-width="2.48262"
         id="g27149-0"><use
           xlink:href="#gz"
           id="use27145-3"
           style="stroke-width:2.48262" /><use
           xlink:href="#gz"
           transform="translate(50)"
           id="use27147-6"
           style="stroke-width:2.48262" /></g></g><g
       id="g27169-7-1"
       transform="matrix(0.26458333,0,0,0.26458333,106.13546,167.66049)"
       style="stroke-width:0.620652"><rect
         width="100"
         height="100"
         fill="none"
         y="-50"
         id="rect27143-8-0"
         x="0"
         style="stroke-width:0.564169" /><g
         stroke="#ff0000"
         stroke-width="2.48262"
         id="g27149-6-6"><use
           xlink:href="#gz"
           id="use27145-8-3"
           style="stroke-width:2.48262" /><use
           xlink:href="#gz"
           transform="translate(50)"
           id="use27147-8-2"
           style="stroke-width:2.48262" /></g></g><g
       id="g27169-7-4-0"
       transform="matrix(0.26458333,0,0,0.26458333,132.59706,167.66049)"
       style="stroke-width:0.620652"><rect
         width="100"
         height="100"
         fill="none"
         y="-50"
         id="rect27143-8-3-6"
         x="0"
         style="stroke-width:0.564169" /><g
         stroke="#ff0000"
         stroke-width="2.48262"
         id="g27149-6-1-1"><use
           xlink:href="#gz"
           id="use27145-8-4-5"
           style="stroke-width:2.48262" /><use
           xlink:href="#gz"
           transform="translate(50)"
           id="use27147-8-9-5"
           style="stroke-width:2.48262" /></g></g></g><g
     id="layer3-4"
     inkscape:label="shinwa_15cm"
     transform="matrix(0.84173281,1.122265e-4,1.1199763e-4,0.84001621,546.90859,686.75585)"
     style="stroke-width:1.26852"><g
       id="g4855-7"
       transform="translate(-3.6656094,-41.523418)"
       style="stroke-width:1.26852"><g
         style="stroke:#000000;stroke-width:1.26852"
         transform="matrix(0.4899393,0,0,0.64211088,1.9707134,36.402584)"
         id="layer5-6"><path
           inkscape:connector-curvature="0"
           d="m 3.9594,8.4755 v 98.154 h 1101.9 V 8.4755 L 3.9594,8.475 Z"
           style="fill:url(#linearGradient6422-7);fill-rule:evenodd;stroke:#000000;stroke-width:1.26852"
           id="path3832-5" /></g><g
         id="g3500-6"
         transform="matrix(0.99909281,0,0,0.64211088,3.9112784,-570.41146)"
         style="stroke-width:1.26852"><path
           id="path3502-9"
           style="fill:none;stroke:#000000;stroke-width:0.898947"
           d="m 35.787,1052 v -34.6"
           inkscape:connector-curvature="0" /><path
           id="path3504-3"
           style="fill:none;stroke:#000000;stroke-width:0.898947"
           d="m 18.071,1052 v -25.7"
           inkscape:connector-curvature="0" /><path
           id="path3506-7"
           style="fill:none;stroke:#000000;stroke-width:0.898947"
           d="m 14.528,1052 v -17"
           inkscape:connector-curvature="0" /><path
           id="path3508-4"
           style="fill:none;stroke:#000000;stroke-width:0.898947"
           d="m 10.984,1052 v -17"
           inkscape:connector-curvature="0" /><path
           id="path3510-5"
           style="fill:none;stroke:#000000;stroke-width:0.898947"
           d="m 7.4409,1052 v -17"
           inkscape:connector-curvature="0" /><path
           id="path3512-2"
           style="fill:none;stroke:#000000;stroke-width:0.898947"
           d="m 3.8976,1052 v -17"
           inkscape:connector-curvature="0" /><path
           id="path3514-5"
           style="fill:none;stroke:#000000;stroke-width:0.898947"
           d="m 32.244,1052 v -17"
           inkscape:connector-curvature="0" /><path
           id="path3516-4"
           style="fill:none;stroke:#000000;stroke-width:0.898947"
           d="m 28.701,1052 v -17"
           inkscape:connector-curvature="0" /><path
           id="path3518-7"
           style="fill:none;stroke:#000000;stroke-width:0.898947"
           d="m 25.157,1052 v -17"
           inkscape:connector-curvature="0" /><path
           id="path3520-4"
           style="fill:none;stroke:#000000;stroke-width:0.898947"
           d="m 21.614,1052 v -17"
           inkscape:connector-curvature="0" /><rect
           id="rect3522-4"
           style="fill:none;stroke-width:0"
           height="35.432999"
           width="35.432999"
           y="1016.9"
           x="0" /><path
           id="path3524-3"
           style="fill:none;stroke:#000000;stroke-width:0.634263"
           d="m 12.73,1052.1 v -8.4"
           inkscape:connector-curvature="0" /><path
           id="path3526-0"
           style="fill:none;stroke:#000000;stroke-width:0.634263"
           d="m 9.1599,1052.1 v -8.4"
           inkscape:connector-curvature="0" /><path
           id="path3528-7"
           style="fill:none;stroke:#000000;stroke-width:0.634263"
           d="m 5.5903,1052.1 v -8.4"
           inkscape:connector-curvature="0" /><path
           id="path3530-8"
           style="fill:none;stroke:#000000;stroke-width:0.634263"
           d="m 2.0207,1052.1 v -8.4"
           inkscape:connector-curvature="0" /><path
           id="path3532-6"
           style="fill:none;stroke:#000000;stroke-width:0.634263"
           d="m 30.578,1052.1 v -8.4"
           inkscape:connector-curvature="0" /><path
           id="path3534-8"
           style="fill:none;stroke:#000000;stroke-width:0.633996;stroke-miterlimit:4;stroke-dasharray:none"
           d="m 27.008,1052.1 v -8.4"
           inkscape:connector-curvature="0" /><path
           id="path3536-8"
           style="fill:none;stroke:#000000;stroke-width:0.634263"
           d="m 23.438,1052.1 v -8.4"
           inkscape:connector-curvature="0" /><path
           id="path3538-4"
           style="fill:none;stroke:#000000;stroke-width:0.634263"
           d="m 19.869,1052.1 v -8.4"
           inkscape:connector-curvature="0" /><path
           id="path3556-3"
           style="fill:none;stroke:#000000;stroke-width:0.633996;stroke-miterlimit:4;stroke-dasharray:none"
           d="m 16.273,1052.1 v -8.4"
           inkscape:connector-curvature="0" /><path
           id="path3558-1"
           style="fill:none;stroke:#000000;stroke-width:0.634263"
           d="m 34.121,1052.1 v -8.4"
           inkscape:connector-curvature="0" /></g><use
         id="use3602-4"
         xlink:href="#g3500-6"
         transform="translate(35.400855)"
         height="1052.3622"
         width="744.09448"
         y="0"
         x="0"
         style="stroke-width:1.26852" /><use
         id="use3604-9"
         xlink:href="#g3500-6"
         transform="translate(70.801711)"
         height="1052.3622"
         width="744.09448"
         y="0"
         x="0"
         style="stroke-width:1.26852" /><use
         id="use3606-2"
         xlink:href="#g3500-6"
         transform="translate(106.20357)"
         height="1052.3622"
         width="744.09448"
         y="0"
         x="0"
         style="stroke-width:1.26852" /><use
         id="use3608-0"
         xlink:href="#g3500-6"
         transform="translate(141.60142)"
         height="1052.3622"
         width="744.09448"
         y="0"
         x="0"
         style="stroke-width:1.26852" /><use
         id="use3610-6"
         xlink:href="#g3500-6"
         transform="translate(177.00927)"
         height="1052.3622"
         width="744.09448"
         y="0"
         x="0"
         style="stroke-width:1.26852" /><use
         id="use3612-8"
         xlink:href="#g3500-6"
         transform="translate(212.40713)"
         height="1052.3622"
         width="744.09448"
         y="0"
         x="0"
         style="stroke-width:1.26852" /><use
         id="use3614-9"
         xlink:href="#g3500-6"
         transform="translate(247.80499)"
         height="1052.3622"
         width="744.09448"
         y="0"
         x="0"
         style="stroke-width:1.26852" /><use
         id="use3616-2"
         xlink:href="#g3500-6"
         transform="translate(283.20285)"
         height="1052.3622"
         width="744.09448"
         y="0"
         x="0"
         style="stroke-width:1.26852" /><use
         id="use3618-6"
         xlink:href="#g3500-6"
         transform="translate(318.6107)"
         height="1052.3622"
         width="744.09448"
         y="0"
         x="0"
         style="stroke-width:1.26852" /><g
         id="g5066-6"
         transform="matrix(0.99909281,0,0,-0.64211088,3.9112784,717.34191)"
         style="stroke-width:1.26852"><path
           id="path5068-4"
           style="fill:none;stroke:#000000;stroke-width:0.898947"
           d="m 35.787,1052 v -34.6"
           inkscape:connector-curvature="0" /><path
           id="path5070-9"
           style="fill:none;stroke:#000000;stroke-width:0.898947"
           d="m 18.071,1052 v -25.7"
           inkscape:connector-curvature="0" /><path
           id="path5072-5"
           style="fill:none;stroke:#000000;stroke-width:0.898947"
           d="m 14.528,1052 v -17"
           inkscape:connector-curvature="0" /><path
           id="path5074-0"
           style="fill:none;stroke:#000000;stroke-width:0.898947"
           d="m 10.984,1052 v -17"
           inkscape:connector-curvature="0" /><path
           id="path5076-4"
           style="fill:none;stroke:#000000;stroke-width:0.898947"
           d="m 7.4409,1052 v -17"
           inkscape:connector-curvature="0" /><path
           id="path5078-8"
           style="fill:none;stroke:#000000;stroke-width:0.898947"
           d="m 3.8976,1052 v -17"
           inkscape:connector-curvature="0" /><path
           id="path5080-7"
           style="fill:none;stroke:#000000;stroke-width:0.898947"
           d="m 32.244,1052 v -17"
           inkscape:connector-curvature="0" /><path
           id="path5082-1"
           style="fill:none;stroke:#000000;stroke-width:0.898947"
           d="m 28.701,1052 v -17"
           inkscape:connector-curvature="0" /><path
           id="path5084-7"
           style="fill:none;stroke:#000000;stroke-width:0.898947"
           d="m 25.157,1052 v -17"
           inkscape:connector-curvature="0" /><path
           id="path5086-2"
           style="fill:none;stroke:#000000;stroke-width:0.898947"
           d="m 21.614,1052 v -17"
           inkscape:connector-curvature="0" /><rect
           id="rect5088-7"
           style="fill:none;stroke-width:0"
           height="35.432999"
           width="35.432999"
           y="1016.9"
           x="0" /></g><use
         id="use3386-2"
         xlink:href="#g5066-6"
         transform="translate(35.400855)"
         height="113.29"
         width="1172.92"
         y="0"
         x="0"
         style="stroke-width:1.26852" /><use
         id="use3388-2"
         xlink:href="#g5066-6"
         transform="translate(70.801711)"
         height="113.29"
         width="1172.92"
         y="0"
         x="0"
         style="stroke-width:1.26852" /><use
         id="use3390-6"
         xlink:href="#g5066-6"
         transform="translate(106.20357)"
         height="113.29"
         width="1172.92"
         y="0"
         x="0"
         style="stroke-width:1.26852" /><use
         id="use3392-1"
         xlink:href="#g5066-6"
         transform="translate(141.60142)"
         height="113.29"
         width="1172.92"
         y="0"
         x="0"
         style="stroke-width:1.26852" /><use
         id="use3394-0"
         xlink:href="#g5066-6"
         transform="translate(177.00927)"
         height="113.29"
         width="1172.92"
         y="0"
         x="0"
         style="stroke-width:1.26852" /><use
         id="use3396-6"
         xlink:href="#g5066-6"
         transform="translate(212.40713)"
         height="113.29"
         width="1172.92"
         y="0"
         x="0"
         style="stroke-width:1.26852" /><use
         id="use3398-1"
         xlink:href="#g5066-6"
         transform="translate(247.80499)"
         height="113.29"
         width="1172.92"
         y="0"
         x="0"
         style="stroke-width:1.26852" /><use
         id="use3400-5"
         xlink:href="#g5066-6"
         transform="translate(283.20285)"
         height="113.29"
         width="1172.92"
         y="0"
         x="0"
         style="stroke-width:1.26852" /><use
         id="use3402-9"
         xlink:href="#g5066-6"
         transform="translate(318.6107)"
         height="113.29"
         width="1172.92"
         y="0"
         x="0"
         style="stroke-width:1.26852" /><use
         id="use3404-4"
         xlink:href="#g5066-6"
         transform="translate(354.00856)"
         height="113.29"
         width="1172.92"
         y="0"
         x="0"
         style="stroke-width:1.26852" /><use
         id="use3406-9"
         xlink:href="#g5066-6"
         transform="translate(389.40641)"
         height="113.29"
         width="1172.92"
         y="0"
         x="0"
         style="stroke-width:1.26852" /><use
         id="use3408-0"
         xlink:href="#g5066-6"
         transform="translate(424.81426)"
         height="113.29"
         width="1172.92"
         y="0"
         x="0"
         style="stroke-width:1.26852" /><use
         id="use3410-9"
         xlink:href="#g5066-6"
         transform="translate(460.21212)"
         height="113.29"
         width="1172.92"
         y="0"
         x="0"
         style="stroke-width:1.26852" /><use
         id="use3412-1"
         xlink:href="#g5066-6"
         transform="translate(495.60998)"
         height="113.29"
         width="1172.92"
         y="0"
         x="0"
         style="stroke-width:1.26852" /><path
         style="fill:none;fill-rule:evenodd;stroke:#000000;stroke-width:0.720113;stroke-linecap:butt;stroke-linejoin:miter;stroke-miterlimit:4;stroke-dasharray:none;stroke-opacity:1"
         d="M 538.82317,52.757149 V 41.84126"
         id="path5178-7"
         inkscape:connector-curvature="0" /><path
         style="fill:none;fill-rule:evenodd;stroke:#000000;stroke-width:0.720113;stroke-linecap:butt;stroke-linejoin:miter;stroke-miterlimit:4;stroke-dasharray:none;stroke-opacity:1"
         d="M 542.36326,52.757149 V 41.84126"
         id="path5180-7"
         inkscape:connector-curvature="0" /><g
         transform="translate(0,0.41601295)"
         id="g4642-1"
         style="stroke-width:1.26852"><text
           id="text3620-1"
           y="77.034706"
           x="35.920212"
           xml:space="preserve"
           style="font-style:normal;font-variant:normal;font-weight:normal;font-stretch:normal;font-size:12.5px;line-height:0%;font-family:Marvel;-inkscape-font-specification:Marvel;fill:#000000;stroke-width:0.908292"><tspan
             id="tspan3622-5"
             y="77.034706"
             x="35.920212"
             style="font-style:normal;font-variant:normal;font-weight:normal;font-stretch:normal;font-size:12.5px;font-family:Marvel;-inkscape-font-specification:Marvel;stroke-width:0.908292">10</tspan></text><text
           id="text3624-9"
           y="77.040955"
           x="69.728714"
           xml:space="preserve"
           style="font-style:normal;font-variant:normal;font-weight:normal;font-stretch:normal;font-size:12.5px;line-height:0%;font-family:Marvel;-inkscape-font-specification:Marvel;fill:#000000;stroke-width:1.26852"><tspan
             id="tspan3626-7"
             y="77.040955"
             x="69.728714"
             style="font-style:normal;font-variant:normal;font-weight:normal;font-stretch:normal;font-size:12.5px;font-family:Marvel;-inkscape-font-specification:Marvel;stroke-width:1.26852">20</tspan></text><text
           id="text3628-7"
           y="77.034706"
           x="104.95791"
           xml:space="preserve"
           style="font-style:normal;font-variant:normal;font-weight:normal;font-stretch:normal;font-size:12.5px;line-height:0%;font-family:Marvel;-inkscape-font-specification:Marvel;fill:#000000;stroke-width:1.26852"><tspan
             id="tspan3630-6"
             y="77.034706"
             x="104.95791"
             style="font-style:normal;font-variant:normal;font-weight:normal;font-stretch:normal;font-size:12.5px;font-family:Marvel;-inkscape-font-specification:Marvel;stroke-width:1.26852">30</tspan></text><text
           id="text3632-7"
           y="77.034706"
           x="141.27602"
           xml:space="preserve"
           style="font-style:normal;font-variant:normal;font-weight:normal;font-stretch:normal;font-size:12.5px;line-height:0%;font-family:Marvel;-inkscape-font-specification:Marvel;fill:#000000;stroke-width:1.26852"><tspan
             id="tspan3634-3"
             y="77.034706"
             x="141.27602"
             style="font-style:normal;font-variant:normal;font-weight:normal;font-stretch:normal;font-size:12.5px;font-family:Marvel;-inkscape-font-specification:Marvel;stroke-width:1.26852">40</tspan></text><text
           id="text3636-6"
           y="77.034706"
           x="176.28511"
           xml:space="preserve"
           style="font-style:normal;font-variant:normal;font-weight:normal;font-stretch:normal;font-size:12.5px;line-height:0%;font-family:Marvel;-inkscape-font-specification:Marvel;fill:#000000;stroke-width:1.26852"><tspan
             id="tspan3638-5"
             y="77.034706"
             x="176.28511"
             style="font-style:normal;font-variant:normal;font-weight:normal;font-stretch:normal;font-size:12.5px;font-family:Marvel;-inkscape-font-specification:Marvel;stroke-width:1.26852">50</tspan></text><text
           id="text3640-6"
           y="77.040955"
           x="211.67958"
           xml:space="preserve"
           style="font-style:normal;font-variant:normal;font-weight:normal;font-stretch:normal;font-size:12.5px;line-height:0%;font-family:Marvel;-inkscape-font-specification:Marvel;fill:#000000;stroke-width:1.26852"><tspan
             id="tspan3642-3"
             y="77.040955"
             x="211.67958"
             style="font-style:normal;font-variant:normal;font-weight:normal;font-stretch:normal;font-size:12.5px;font-family:Marvel;-inkscape-font-specification:Marvel;stroke-width:1.26852">60</tspan></text><text
           id="text3644-9"
           y="77.034706"
           x="247.67461"
           xml:space="preserve"
           style="font-style:normal;font-variant:normal;font-weight:normal;font-stretch:normal;font-size:12.5px;line-height:0%;font-family:Marvel;-inkscape-font-specification:Marvel;fill:#000000;stroke-width:1.26852"><tspan
             id="tspan3646-4"
             y="77.034706"
             x="247.67461"
             style="font-style:normal;font-variant:normal;font-weight:normal;font-stretch:normal;font-size:12.5px;font-family:Marvel;-inkscape-font-specification:Marvel;stroke-width:1.26852">70</tspan></text><text
           id="text3648-8"
           y="77.034706"
           x="282.40234"
           xml:space="preserve"
           style="font-style:normal;font-variant:normal;font-weight:normal;font-stretch:normal;font-size:12.5px;line-height:0%;font-family:Marvel;-inkscape-font-specification:Marvel;fill:#000000;stroke-width:1.26852"><tspan
             id="tspan3650-1"
             y="77.034706"
             x="282.40234"
             style="font-style:normal;font-variant:normal;font-weight:normal;font-stretch:normal;font-size:12.5px;font-family:Marvel;-inkscape-font-specification:Marvel;stroke-width:1.26852">80</tspan></text><text
           id="text3652-2"
           y="77.028458"
           x="317.19833"
           xml:space="preserve"
           style="font-style:normal;font-variant:normal;font-weight:normal;font-stretch:normal;font-size:12.5px;line-height:0%;font-family:Marvel;-inkscape-font-specification:Marvel;fill:#000000;stroke-width:1.26852"><tspan
             id="tspan3654-9"
             y="77.028458"
             x="317.19833"
             style="font-style:normal;font-variant:normal;font-weight:normal;font-stretch:normal;font-size:12.5px;font-family:Marvel;-inkscape-font-specification:Marvel;stroke-width:1.26852">90</tspan></text><text
           id="text3656-3"
           y="77.034706"
           x="351.09805"
           xml:space="preserve"
           style="font-style:normal;font-variant:normal;font-weight:normal;font-stretch:normal;font-size:12.5px;line-height:0%;font-family:Marvel;-inkscape-font-specification:Marvel;fill:#000000;stroke-width:1.26852"><tspan
             id="tspan3658-9"
             y="77.034706"
             x="351.09805"
             style="font-style:normal;font-variant:normal;font-weight:normal;font-stretch:normal;font-size:12.5px;font-family:Marvel;-inkscape-font-specification:Marvel;stroke-width:1.26852">100</tspan></text><text
           id="text3660-0"
           y="77.034706"
           x="387.90271"
           xml:space="preserve"
           style="font-style:normal;font-variant:normal;font-weight:normal;font-stretch:normal;font-size:12.5px;line-height:0%;font-family:Marvel;-inkscape-font-specification:Marvel;fill:#000000;stroke-width:1.26852"><tspan
             id="tspan3662-8"
             y="77.034706"
             x="387.90271"
             style="font-style:normal;font-variant:normal;font-weight:normal;font-stretch:normal;font-size:12.5px;font-family:Marvel;-inkscape-font-specification:Marvel;stroke-width:1.26852">110</tspan></text><text
           id="text3664-8"
           y="77.040955"
           x="422.85159"
           xml:space="preserve"
           style="font-style:normal;font-variant:normal;font-weight:normal;font-stretch:normal;font-size:12.5px;line-height:0%;font-family:Marvel;-inkscape-font-specification:Marvel;fill:#000000;stroke-width:1.26852"><tspan
             id="tspan3666-5"
             y="77.040955"
             x="422.85159"
             style="font-style:normal;font-variant:normal;font-weight:normal;font-stretch:normal;font-size:12.5px;font-family:Marvel;-inkscape-font-specification:Marvel;stroke-width:1.26852">120</tspan></text><text
           id="text3668-0"
           y="77.034706"
           x="458.15479"
           xml:space="preserve"
           style="font-style:normal;font-variant:normal;font-weight:normal;font-stretch:normal;font-size:12.5px;line-height:0%;font-family:Marvel;-inkscape-font-specification:Marvel;fill:#000000;stroke-width:1.26852"><tspan
             id="tspan3670-9"
             y="77.034706"
             x="458.15479"
             style="font-style:normal;font-variant:normal;font-weight:normal;font-stretch:normal;font-size:12.5px;font-family:Marvel;-inkscape-font-specification:Marvel;stroke-width:1.26852">130</tspan></text><text
           id="text3672-6"
           y="77.034706"
           x="493.67871"
           xml:space="preserve"
           style="font-style:normal;font-variant:normal;font-weight:normal;font-stretch:normal;font-size:12.5px;line-height:0%;font-family:Marvel;-inkscape-font-specification:Marvel;fill:#000000;stroke-width:1.26852"><tspan
             id="tspan3674-3"
             y="77.034706"
             x="493.67871"
             style="font-style:normal;font-variant:normal;font-weight:normal;font-stretch:normal;font-size:12.5px;font-family:Marvel;-inkscape-font-specification:Marvel;stroke-width:1.26852">140</tspan></text><text
           id="text3676-8"
           y="77.034706"
           x="528.86908"
           xml:space="preserve"
           style="font-style:normal;font-variant:normal;font-weight:normal;font-stretch:normal;font-size:12.5px;line-height:0%;font-family:Marvel;-inkscape-font-specification:Marvel;fill:#000000;stroke-width:1.26852"><tspan
             id="tspan3678-5"
             y="77.034706"
             x="528.86908"
             style="font-style:normal;font-variant:normal;font-weight:normal;font-stretch:normal;font-size:12.5px;font-family:Marvel;-inkscape-font-specification:Marvel;stroke-width:1.26852">150</tspan></text></g><path
         id="text3473-6"
         style="fill:#000000;stroke-width:0.920339"
         d="m 8.1267055,84.148697 c 0,-0.370013 0.037727,-0.66675 0.1131806,-0.89166 0.076905,-0.225636 0.18936,-0.400485 0.3388165,-0.522372 0.1509075,-0.122613 0.3402674,-0.183556 0.5673542,-0.183556 0.1675944,0 0.3148744,0.0341 0.4418402,0.102298 0.12624,0.06675 0.2307144,0.164692 0.3134233,0.292383 0.081983,0.12624 0.1472797,0.281501 0.1937127,0.465056 0.04716,0.182105 0.07038,0.428055 0.07038,0.737851 0,0.366386 -0.03773,0.663123 -0.113181,0.889484 -0.074728,0.224185 -0.187909,0.398309 -0.3388165,0.522372 -0.1494565,0.121887 -0.3380913,0.183556 -0.5673547,0.183556 -0.3010895,0 -0.5383336,-0.108102 -0.7102811,-0.324306 C 8.2297289,85.159342 8.1267055,84.73564 8.1267055,84.148697 m 0.3946812,0 c 0,0.512941 0.059492,0.855385 0.1792027,1.025881 0.1204358,0.169046 0.2691668,0.253206 0.4454674,0.253206 0.1763006,0 0.3243061,-0.08489 0.4440168,-0.255382 0.1204358,-0.170497 0.1806537,-0.512215 0.1806537,-1.023705 0,-0.515117 -0.060218,-0.856835 -0.1806537,-1.025881 -0.1197107,-0.169045 -0.2691672,-0.253931 -0.4483699,-0.253931 -0.1763006,0 -0.3170509,0.07473 -0.4222508,0.224185 -0.1320441,0.190085 -0.1980662,0.541961 -0.1980662,1.055627 m 2.2520053,1.541724 v -0.437487 h 0.437486 v 0.437487 h -0.437486 m 0.996135,-0.819109 0.402661,-0.0341 c 0.02975,0.196615 0.09867,0.343895 0.206773,0.444016 0.109553,0.09795 0.241597,0.146555 0.394681,0.146555 0.185007,0 0.341718,-0.06965 0.469409,-0.208949 0.127691,-0.1393 0.191537,-0.323581 0.191537,-0.554295 0,-0.219106 -0.06167,-0.391779 -0.185007,-0.518019 -0.122612,-0.126966 -0.282952,-0.190086 -0.482469,-0.190086 -0.123338,0 -0.235067,0.02829 -0.334463,0.08561 -0.0994,0.05514 -0.177752,0.127691 -0.234342,0.217655 l -0.360582,-0.04716 0.302541,-1.605569 h 1.554783 v 0.366386 h -1.24789 l -0.16832,0.840148 c 0.187909,-0.130593 0.384524,-0.195889 0.590571,-0.195889 0.27352,0 0.503509,0.09432 0.691418,0.283677 0.187909,0.188634 0.2815,0.432408 0.2815,0.729144 0,0.282952 -0.08271,0.527451 -0.247401,0.733498 -0.200242,0.253206 -0.474488,0.380171 -0.821285,0.380171 -0.284403,0 -0.516568,-0.07981 -0.697222,-0.239421 -0.179202,-0.158888 -0.2815,-0.370013 -0.306893,-0.633376"
         inkscape:connector-curvature="0" /><path
         id="text3477-1"
         style="fill:#000000;stroke-width:0.920339"
         d="m 17.910302,85.744109 v -2.265064 h 0.34317 v 0.317776 c 0.0711,-0.111004 0.165417,-0.200242 0.283677,-0.26699 0.118259,-0.0682 0.25248,-0.102298 0.403387,-0.102298 0.167595,0 0.304717,0.03482 0.411368,0.104475 0.108102,0.06965 0.184282,0.167594 0.227813,0.292383 0.179202,-0.264814 0.412819,-0.396858 0.700123,-0.396858 0.224185,0 0.396858,0.0624 0.51802,0.187909 0.120435,0.123338 0.181379,0.314875 0.181379,0.573884 v 1.554783 h -0.381622 v -1.427092 c 0,-0.153809 -0.01306,-0.264088 -0.03845,-0.330836 -0.02467,-0.0682 -0.06892,-0.122612 -0.134946,-0.163966 -0.0653,-0.04135 -0.141475,-0.06167 -0.229989,-0.06167 -0.158888,0 -0.291657,0.05296 -0.396857,0.159613 -0.1052,0.1052 -0.157438,0.274246 -0.157438,0.507862 v 1.316088 h -0.383798 v -1.472074 c 0,-0.170496 -0.0312,-0.298187 -0.09432,-0.383798 -0.0624,-0.08489 -0.164693,-0.127691 -0.306894,-0.127691 -0.108102,0 -0.208223,0.02829 -0.300364,0.08488 -0.09142,0.05732 -0.157437,0.140025 -0.198792,0.249578 -0.04135,0.109553 -0.06167,0.267716 -0.06167,0.473763 v 1.175337 H 17.9103 m 3.642095,0 v -2.265064 h 0.343895 v 0.317776 c 0.0711,-0.111004 0.165418,-0.200242 0.283677,-0.26699 0.117534,-0.0682 0.25248,-0.102298 0.402662,-0.102298 0.167595,0 0.305443,0.03482 0.412094,0.104475 0.107376,0.06965 0.183556,0.167594 0.227812,0.292383 0.179203,-0.264814 0.412094,-0.396858 0.699399,-0.396858 0.22491,0 0.397583,0.0624 0.518744,0.187909 0.120436,0.123338 0.180654,0.314875 0.180654,0.573884 v 1.554783 H 24.23971 v -1.427092 c 0,-0.153809 -0.01233,-0.264088 -0.03845,-0.330836 -0.02394,-0.0682 -0.06892,-0.122612 -0.134221,-0.163966 -0.0653,-0.04135 -0.142201,-0.06167 -0.229989,-0.06167 -0.159614,0 -0.291658,0.05296 -0.396858,0.159613 -0.1052,0.1052 -0.158162,0.274246 -0.158162,0.507862 v 1.316088 h -0.383799 v -1.472074 c 0,-0.170496 -0.0312,-0.298187 -0.09359,-0.383798 -0.06239,-0.08489 -0.164692,-0.127691 -0.306893,-0.127691 -0.108102,0 -0.208224,0.02829 -0.30109,0.08488 -0.09069,0.05732 -0.156711,0.140025 -0.198066,0.249578 -0.04135,0.109553 -0.06167,0.267716 -0.06167,0.473763 v 1.175337 h -0.384524"
         inkscape:connector-curvature="0" /><use
         id="use3485-1"
         xlink:href="#text3477-1"
         transform="matrix(0.99999156,0,0,0.99999156,-10.053225,-25.094259)"
         height="113.29"
         width="1172.92"
         y="0"
         x="0"
         style="stroke-width:1.26852" /><use
         x="0"
         y="0"
         width="744.09448"
         height="1052.3622"
         transform="translate(354.01155)"
         xlink:href="#g3500-6"
         id="use4731-5"
         style="stroke-width:1.26852" /><use
         id="use4733-9"
         xlink:href="#g3500-6"
         transform="translate(389.4124)"
         height="1052.3622"
         width="744.09448"
         y="0"
         x="0"
         style="stroke-width:1.26852" /><use
         id="use4735-8"
         xlink:href="#g3500-6"
         transform="translate(424.81325)"
         height="1052.3622"
         width="744.09448"
         y="0"
         x="0"
         style="stroke-width:1.26852" /><use
         x="0"
         y="0"
         width="744.09448"
         height="1052.3622"
         transform="translate(460.2141)"
         xlink:href="#g3500-6"
         id="use4737-4"
         style="stroke-width:1.26852" /><use
         x="0"
         y="0"
         width="744.09448"
         height="1052.3622"
         transform="translate(495.61495)"
         xlink:href="#g3500-6"
         id="use4739-8"
         style="stroke-width:1.26852" /><path
         inkscape:connector-curvature="0"
         id="path4743-1"
         d="M 538.82317,105.1916 V 94.275713"
         style="fill:none;fill-rule:evenodd;stroke:#000000;stroke-width:0.720113;stroke-linecap:butt;stroke-linejoin:miter;stroke-miterlimit:4;stroke-dasharray:none;stroke-opacity:1" /><path
         inkscape:connector-curvature="0"
         id="path4745-0"
         d="M 542.36326,105.1916 V 94.275713"
         style="fill:none;fill-rule:evenodd;stroke:#000000;stroke-width:0.720113;stroke-linecap:butt;stroke-linejoin:miter;stroke-miterlimit:4;stroke-dasharray:none;stroke-opacity:1" /><path
         inkscape:connector-curvature="0"
         id="path4747-3"
         d="M 537.05513,99.759663 V 105.1534"
         style="fill:none;fill-rule:evenodd;stroke:#000000;stroke-width:0.59462;stroke-linecap:butt;stroke-linejoin:miter;stroke-miterlimit:4;stroke-dasharray:none;stroke-opacity:1" /><path
         style="fill:none;fill-rule:evenodd;stroke:#000000;stroke-width:0.59462;stroke-linecap:butt;stroke-linejoin:miter;stroke-miterlimit:4;stroke-dasharray:none;stroke-opacity:1"
         d="M 540.61829,99.759663 V 105.1534"
         id="path4749-0"
         inkscape:connector-curvature="0" /></g></g><g
     id="g28677-4"
     transform="matrix(6.2883412,8.3841156e-4,8.1191449e-4,6.0896051,38.317685,-395.58759)"
     style="stroke-width:0.610766"><line
       y2="175.5728"
       x1="117.70427"
       x2="126.7044"
       stroke="#000000"
       stroke-miterlimit="10"
       y1="175.5728"
       stroke-width="27.8752"
       id="line28625-7"
       style="stroke-width:0.427536;stroke-dasharray:none" /><g
       id="g28658-6"
       transform="translate(-0.48806473,0.07108)"
       style="stroke-width:0.610766"><polygon
         points="124.4,44.606 148.35,23.69 124.4,6.284 "
         id="polygon28627-3"
         style="stroke-width:7.50716;stroke-dasharray:none"
         transform="matrix(0.09075208,0,0,0.03573843,115.90344,174.59235)" /></g><polygon
       points="124.4,44.606 148.35,23.69 124.4,6.284 "
       id="polygon28627-0-1"
       style="stroke-width:7.50716;stroke-dasharray:none"
       transform="matrix(-0.09075208,0,0,0.03573843,129.33041,174.66343)" /></g><path
     style="fill:#1e1e1e;fill-opacity:0.3;fill-rule:nonzero;stroke:#1e1e1e;stroke-width:1.99938;stroke-linecap:round;stroke-linejoin:round;stroke-miterlimit:4;stroke-dasharray:none;stroke-dashoffset:0;stroke-opacity:0.46759"
     id="path4431-7"
     d="m 843.80932,652.72266 c -0.45502,-1.17951 -0.82713,-2.5003 -1.36605,-3.53863 -1.76676,-3.40416 -3.8019,-5.69378 -6.15655,-7.31642 -1.10971,-0.76455 -2.2958,-1.02133 -3.45118,-1.46178 -7.75666,-2.95699 -5.30767,-2.08299 -13.69595,-3.54321 -2.70327,-0.0308 -5.40898,-0.30585 -8.10982,-0.0846 -8.60331,0.70441 -17.1466,3.70976 -25.33931,8.84162 -2.60215,1.62999 -5.17722,3.45521 -7.68212,5.58298 -2.30592,1.95882 -4.48482,4.4381 -6.72723,6.65704 -3.81444,5.11986 -6.58668,7.87589 -9.40454,15.01119 -1.4963,3.7891 -2.84994,8.90376 -1.8556,13.88965 1.17621,5.89819 4.21473,7.66999 6.76532,10.36911 5.43491,2.62465 7.00271,3.70011 13.24297,4.88212 3.16818,0.60031 6.35507,0.83477 9.53799,0.92059 7.78566,0.20989 13.65276,-0.56695 21.42215,-2.22808 3.71623,-0.79455 7.41151,-1.91967 11.11736,-2.87954 8.72695,-2.988 11.95799,-3.8196 20.42728,-7.75013 2.77058,-1.28591 5.54742,-2.56762 8.259,-4.26179 3.26094,-2.03744 8.13261,-5.57402 10.79926,-10.49908 0.93862,-1.73359 1.3972,-4.23702 2.09567,-6.35543 -0.0429,-2.22044 0.26678,-4.57617 -0.12874,-6.66127 -1.15339,-6.07746 -4.45358,-10.5685 -7.14229,-13.48072 -1.77596,-1.92404 -3.67721,-3.43821 -5.61605,-4.63046 -8.52381,-5.2417 -10.77298,-4.78176 -19.95094,-6.774 -4.05446,-0.031 -8.11268,-0.42802 -12.16333,-0.0875 -8.22462,0.69146 -16.6198,2.97599 -24.69247,6.03253 -6.80023,2.5747 -13.93537,6.06094 -20.49469,10.52945 -2.65049,1.80561 -5.20603,4.09872 -7.80894,6.14808 -4.2916,4.74136 -6.82322,6.58678 -10.1372,13.45128 -1.29892,2.6906 -3.26875,7.63309 -2.36549,12.01188 0.90514,4.38705 3.04917,4.82829 4.96619,6.05088 2.27141,0.77185 4.5283,1.72966 6.81445,2.31551 5.81228,1.48946 13.54985,2.44024 19.31088,2.81244 8.02339,0.51871 15.26096,0.49469 23.2866,-0.57665 4.04014,-0.539 8.06032,-1.5429 12.09037,-2.31434 9.40099,-3.01318 13.00107,-3.68808 22.04874,-8.37735 4.18269,-2.1678 10.77387,-5.90548 14.63897,-10.88105 1.16655,-1.50177 1.9456,-3.908 2.9183,-5.86199 0.27512,-1.1053 1.88544,0.40638 1.61005,1.51208 v 0 c -1.06518,1.90366 -1.9585,4.25075 -3.19559,5.71092 -4.009,4.73189 -10.79061,8.40056 -15.0443,10.51719 -9.19631,4.57594 -12.65749,5.23004 -22.18904,8.25117 -4.02318,0.78332 -8.03625,1.79183 -12.06951,2.34977 -7.98936,1.10512 -15.15038,1.1804 -23.13855,0.76503 -5.51627,-0.28691 -13.37903,-1.12024 -18.9811,-2.39608 -2.2237,-0.50632 -4.42335,-1.35267 -6.63503,-2.02901 -1.80154,-1.37755 -7.19619,-3.46868 -8.23565,-9.23649 -0.80666,-4.47653 1.35906,-9.4553 2.68766,-12.04399 3.49326,-6.80597 6.01589,-8.54373 10.45766,-13.23312 2.65332,-2.00464 5.26194,-4.2474 7.95986,-6.0138 6.62247,-4.33587 13.89489,-7.76001 20.73289,-10.30286 8.08656,-3.00734 16.44636,-5.30992 24.67848,-6.08092 4.01088,-0.37574 8.03119,-0.0476 12.04679,-0.0696 3.57042,0.71846 7.17011,1.01304 10.71122,2.15534 6.23042,2.0099 11.72732,5.35222 17.3086,11.14765 2.7198,2.82461 6.22167,7.77752 7.34437,13.94139 0.39057,2.14531 0.0249,4.55024 0.0373,6.82527 -0.75476,2.11793 -1.27512,4.63795 -2.26436,6.35395 -2.7714,4.80733 -7.84709,8.28228 -11.1495,10.2418 -2.76165,1.63864 -5.58404,2.86887 -8.39838,4.12424 -8.5791,3.82663 -11.72949,4.64867 -20.54978,7.63537 -3.69972,0.96987 -7.38956,2.09564 -11.09927,2.90948 -7.79334,1.70986 -13.47676,2.52138 -21.28309,2.4184 -5.30088,-0.0695 -12.19928,-0.66705 -17.47113,-2.99853 -2.71759,-1.20184 -5.32036,-3.23095 -7.98051,-4.8465 -2.62894,-2.82943 -5.74742,-4.64267 -6.88647,-10.82904 -0.93924,-5.101 0.58082,-10.24174 2.13012,-13.96053 2.93228,-7.03728 5.75478,-9.82005 9.62788,-14.89675 2.26611,-2.20595 4.471,-4.66631 6.79821,-6.61795 2.52155,-2.11454 5.11104,-3.93194 7.72637,-5.5622 8.1894,-5.1051 16.71007,-8.16815 25.30464,-8.95991 2.67954,-0.24692 5.36524,-0.005 8.04786,-0.0111 2.4345,0.38335 4.87948,0.56577 7.30349,1.14938 4.89279,1.17804 8.16413,2.7434 12.82493,6.1803 2.52923,1.86511 4.42066,3.9584 6.32643,7.59133 0.56892,1.08451 0.97826,2.4448 1.4675,3.66719 -0.23613,1.3826 -2.25067,0.0832 -2.01419,-1.29948 z"
     inkscape:connector-curvature="0" /><path
     style="display:inline;fill:none;stroke:#ff0000;stroke-width:7.99998;stroke-linecap:round;stroke-linejoin:miter;stroke-miterlimit:4;stroke-dasharray:none;stroke-opacity:1;enable-background:new"
     d="m 565.09629,563.90583 369.80965,3e-5"
     id="path4642-5"
     sodipodi:nodetypes="cc" /><g
     id="g28677-4-7"
     transform="matrix(9.0690446,8.3841156e-4,0.00117084,6.0896051,-181.58773,-791.66863)"
     style="stroke-width:0.508583"><line
       y2="175.5728"
       x1="117.70427"
       x2="126.7044"
       stroke="#000000"
       stroke-miterlimit="10"
       y1="175.5728"
       stroke-width="27.8752"
       id="line28625-7-5"
       style="stroke-width:0.356008;stroke-dasharray:none" /><g
       id="g28658-6-6"
       transform="translate(-0.48806473,0.07108)"
       style="stroke-width:0.508583"><polygon
         points="148.35,23.69 124.4,6.284 124.4,44.606 "
         id="polygon28627-3-9"
         style="stroke-width:6.25119;stroke-dasharray:none"
         transform="matrix(0.09075208,0,0,0.03573843,115.90344,174.59235)" /></g><polygon
       points="124.4,44.606 148.35,23.69 124.4,6.284 "
       id="polygon28627-0-1-8"
       style="stroke-width:6.25119;stroke-dasharray:none"
       transform="matrix(-0.09075208,0,0,0.03573843,129.33041,174.66343)" /></g><g
     id="g27169-4-5"
     transform="matrix(2.3236839,2.1481904e-4,3.0978475e-4,1.611208,552.03028,228.48029)"
     style="stroke-width:0.516815"><rect
       width="100"
       height="100"
       fill="none"
       y="-50"
       id="rect27143-5-7"
       x="0"
       style="stroke-width:0.469782" /><g
       stroke="#ff0000"
       stroke-width="2.06727"
       id="g27149-0-4"><use
         xlink:href="#gz"
         id="use27145-3-1"
         style="stroke-width:2.06727" /><use
         xlink:href="#gz"
         transform="translate(50)"
         id="use27147-6-8"
         style="stroke-width:2.06727" /></g></g><g
     id="g27169-7-1-5"
     transform="matrix(2.3236839,2.1481904e-4,3.0978475e-4,1.611208,784.15259,228.50175)"
     style="stroke-width:0.516815"><rect
       width="100"
       height="100"
       fill="none"
       y="-50"
       id="rect27143-8-0-9"
       x="0"
       style="stroke-width:0.469782" /><g
       stroke="#ff0000"
       stroke-width="2.06727"
       id="g27149-6-6-7"><use
         xlink:href="#gz"
         id="use27145-8-3-5"
         style="stroke-width:2.06727" /><use
         xlink:href="#gz"
         transform="translate(50)"
         id="use27147-8-2-3"
         style="stroke-width:2.06727" /></g></g><g
     id="g27169-7-4-0-8"
     transform="matrix(2.3236839,2.1481904e-4,3.0978475e-4,1.611208,1016.5496,228.52323)"
     style="stroke-width:0.51763;stroke-dasharray:none"><rect
       width="100"
       height="100"
       fill="none"
       y="-50"
       id="rect27143-8-3-6-8"
       x="0"
       style="stroke-width:0.51763;stroke-dasharray:none" /><g
       stroke="#ff0000"
       stroke-width="2.06727"
       id="g27149-6-1-1-3"
       style="stroke-width:0.51763;stroke-dasharray:none"><use
         xlink:href="#gz"
         id="use27145-8-4-5-1"
         style="stroke-width:0.51763;stroke-dasharray:none" /><use
         xlink:href="#gz"
         transform="translate(50)"
         id="use27147-8-9-5-8"
         style="stroke-width:0.51763;stroke-dasharray:none" /></g></g><path
     style="display:inline;fill:none;stroke:#ff0087;stroke-width:7.99998;stroke-linecap:round;stroke-linejoin:miter;stroke-miterlimit:4;stroke-dasharray:none;stroke-opacity:1;enable-background:new"
     d="m 578.13236,167.82479 533.33934,3e-5"
     id="path4642-5-2"
     sodipodi:nodetypes="cc" /><g
     id="g4855-7-6"
     transform="matrix(0.84173281,1.122265e-4,1.1199763e-4,0.84001621,565.92538,255.902)"
     style="stroke-width:1.26852"><g
       style="stroke:#000000;stroke-width:1.26852"
       transform="matrix(0.4899393,0,0,0.64211088,1.9707134,36.402584)"
       id="layer5-6-0"><path
         inkscape:connector-curvature="0"
         d="m 3.9594,8.4755 v 98.154 h 1101.9 V 8.4755 L 3.9594,8.475 Z"
         style="fill:url(#linearGradient6422-7-8);fill-rule:evenodd;stroke:#000000;stroke-width:1.26852"
         id="path3832-5-2" /></g><g
       id="g3500-6-7"
       transform="matrix(0.99909281,0,0,0.64211088,3.9112784,-570.41146)"
       style="stroke-width:1.26852"><path
         id="path3502-9-6"
         style="fill:none;stroke:#000000;stroke-width:0.898947"
         d="m 35.787,1052 v -34.6"
         inkscape:connector-curvature="0" /><path
         id="path3504-3-1"
         style="fill:none;stroke:#000000;stroke-width:0.898947"
         d="m 18.071,1052 v -25.7"
         inkscape:connector-curvature="0" /><path
         id="path3506-7-3"
         style="fill:none;stroke:#000000;stroke-width:0.898947"
         d="m 14.528,1052 v -17"
         inkscape:connector-curvature="0" /><path
         id="path3508-4-2"
         style="fill:none;stroke:#000000;stroke-width:0.898947"
         d="m 10.984,1052 v -17"
         inkscape:connector-curvature="0" /><path
         id="path3510-5-1"
         style="fill:none;stroke:#000000;stroke-width:0.898947"
         d="m 7.4409,1052 v -17"
         inkscape:connector-curvature="0" /><path
         id="path3512-2-5"
         style="fill:none;stroke:#000000;stroke-width:0.898947"
         d="m 3.8976,1052 v -17"
         inkscape:connector-curvature="0" /><path
         id="path3514-5-9"
         style="fill:none;stroke:#000000;stroke-width:0.898947"
         d="m 32.244,1052 v -17"
         inkscape:connector-curvature="0" /><path
         id="path3516-4-9"
         style="fill:none;stroke:#000000;stroke-width:0.898947"
         d="m 28.701,1052 v -17"
         inkscape:connector-curvature="0" /><path
         id="path3518-7-1"
         style="fill:none;stroke:#000000;stroke-width:0.898947"
         d="m 25.157,1052 v -17"
         inkscape:connector-curvature="0" /><path
         id="path3520-4-4"
         style="fill:none;stroke:#000000;stroke-width:0.898947"
         d="m 21.614,1052 v -17"
         inkscape:connector-curvature="0" /><rect
         id="rect3522-4-9"
         style="fill:none;stroke-width:0"
         height="35.432999"
         width="35.432999"
         y="1016.9"
         x="0" /><path
         id="path3524-3-1"
         style="fill:none;stroke:#000000;stroke-width:0.634263"
         d="m 12.73,1052.1 v -8.4"
         inkscape:connector-curvature="0" /><path
         id="path3526-0-0"
         style="fill:none;stroke:#000000;stroke-width:0.634263"
         d="m 9.1599,1052.1 v -8.4"
         inkscape:connector-curvature="0" /><path
         id="path3528-7-7"
         style="fill:none;stroke:#000000;stroke-width:0.634263"
         d="m 5.5903,1052.1 v -8.4"
         inkscape:connector-curvature="0" /><path
         id="path3530-8-5"
         style="fill:none;stroke:#000000;stroke-width:0.634263"
         d="m 2.0207,1052.1 v -8.4"
         inkscape:connector-curvature="0" /><path
         id="path3532-6-8"
         style="fill:none;stroke:#000000;stroke-width:0.634263"
         d="m 30.578,1052.1 v -8.4"
         inkscape:connector-curvature="0" /><path
         id="path3534-8-7"
         style="fill:none;stroke:#000000;stroke-width:0.633996;stroke-miterlimit:4;stroke-dasharray:none"
         d="m 27.008,1052.1 v -8.4"
         inkscape:connector-curvature="0" /><path
         id="path3536-8-0"
         style="fill:none;stroke:#000000;stroke-width:0.634263"
         d="m 23.438,1052.1 v -8.4"
         inkscape:connector-curvature="0" /><path
         id="path3538-4-4"
         style="fill:none;stroke:#000000;stroke-width:0.634263"
         d="m 19.869,1052.1 v -8.4"
         inkscape:connector-curvature="0" /><path
         id="path3556-3-8"
         style="fill:none;stroke:#000000;stroke-width:0.633996;stroke-miterlimit:4;stroke-dasharray:none"
         d="m 16.273,1052.1 v -8.4"
         inkscape:connector-curvature="0" /><path
         id="path3558-1-0"
         style="fill:none;stroke:#000000;stroke-width:0.634263"
         d="m 34.121,1052.1 v -8.4"
         inkscape:connector-curvature="0" /></g><use
       id="use3602-4-4"
       xlink:href="#g3500-6-7"
       transform="translate(35.400855)"
       height="1052.3622"
       width="744.09448"
       y="0"
       x="0"
       style="stroke-width:1.26852" /><use
       id="use3604-9-2"
       xlink:href="#g3500-6-7"
       transform="translate(70.801711)"
       height="1052.3622"
       width="744.09448"
       y="0"
       x="0"
       style="stroke-width:1.26852" /><use
       id="use3606-2-9"
       xlink:href="#g3500-6-7"
       transform="translate(106.20357)"
       height="1052.3622"
       width="744.09448"
       y="0"
       x="0"
       style="stroke-width:1.26852" /><use
       id="use3608-0-6"
       xlink:href="#g3500-6-7"
       transform="translate(141.60142)"
       height="1052.3622"
       width="744.09448"
       y="0"
       x="0"
       style="stroke-width:1.26852" /><use
       id="use3610-6-1"
       xlink:href="#g3500-6-7"
       transform="translate(177.00927)"
       height="1052.3622"
       width="744.09448"
       y="0"
       x="0"
       style="stroke-width:1.26852" /><use
       id="use3612-8-0"
       xlink:href="#g3500-6-7"
       transform="translate(212.40713)"
       height="1052.3622"
       width="744.09448"
       y="0"
       x="0"
       style="stroke-width:1.26852" /><use
       id="use3614-9-4"
       xlink:href="#g3500-6-7"
       transform="translate(247.80499)"
       height="1052.3622"
       width="744.09448"
       y="0"
       x="0"
       style="stroke-width:1.26852" /><use
       id="use3616-2-2"
       xlink:href="#g3500-6-7"
       transform="translate(283.20285)"
       height="1052.3622"
       width="744.09448"
       y="0"
       x="0"
       style="stroke-width:1.26852" /><use
       id="use3618-6-2"
       xlink:href="#g3500-6-7"
       transform="translate(318.6107)"
       height="1052.3622"
       width="744.09448"
       y="0"
       x="0"
       style="stroke-width:1.26852" /><g
       id="g5066-6-2"
       transform="matrix(0.99909281,0,0,-0.64211088,3.9112784,717.34191)"
       style="stroke-width:1.26852"><path
         id="path5068-4-0"
         style="fill:none;stroke:#000000;stroke-width:0.898947"
         d="m 35.787,1052 v -34.6"
         inkscape:connector-curvature="0" /><path
         id="path5070-9-5"
         style="fill:none;stroke:#000000;stroke-width:0.898947"
         d="m 18.071,1052 v -25.7"
         inkscape:connector-curvature="0" /><path
         id="path5072-5-5"
         style="fill:none;stroke:#000000;stroke-width:0.898947"
         d="m 14.528,1052 v -17"
         inkscape:connector-curvature="0" /><path
         id="path5074-0-2"
         style="fill:none;stroke:#000000;stroke-width:0.898947"
         d="m 10.984,1052 v -17"
         inkscape:connector-curvature="0" /><path
         id="path5076-4-9"
         style="fill:none;stroke:#000000;stroke-width:0.898947"
         d="m 7.4409,1052 v -17"
         inkscape:connector-curvature="0" /><path
         id="path5078-8-0"
         style="fill:none;stroke:#000000;stroke-width:0.898947"
         d="m 3.8976,1052 v -17"
         inkscape:connector-curvature="0" /><path
         id="path5080-7-2"
         style="fill:none;stroke:#000000;stroke-width:0.898947"
         d="m 32.244,1052 v -17"
         inkscape:connector-curvature="0" /><path
         id="path5082-1-8"
         style="fill:none;stroke:#000000;stroke-width:0.898947"
         d="m 28.701,1052 v -17"
         inkscape:connector-curvature="0" /><path
         id="path5084-7-3"
         style="fill:none;stroke:#000000;stroke-width:0.898947"
         d="m 25.157,1052 v -17"
         inkscape:connector-curvature="0" /><path
         id="path5086-2-8"
         style="fill:none;stroke:#000000;stroke-width:0.898947"
         d="m 21.614,1052 v -17"
         inkscape:connector-curvature="0" /><rect
         id="rect5088-7-0"
         style="fill:none;stroke-width:0"
         height="35.432999"
         width="35.432999"
         y="1016.9"
         x="0" /></g><use
       id="use3386-2-4"
       xlink:href="#g5066-6-2"
       transform="translate(35.400855)"
       height="113.29"
       width="1172.92"
       y="0"
       x="0"
       style="stroke-width:1.26852" /><use
       id="use3388-2-0"
       xlink:href="#g5066-6-2"
       transform="translate(70.801711)"
       height="113.29"
       width="1172.92"
       y="0"
       x="0"
       style="stroke-width:1.26852" /><use
       id="use3390-6-9"
       xlink:href="#g5066-6-2"
       transform="translate(106.20357)"
       height="113.29"
       width="1172.92"
       y="0"
       x="0"
       style="stroke-width:1.26852" /><use
       id="use3392-1-1"
       xlink:href="#g5066-6-2"
       transform="translate(141.60142)"
       height="113.29"
       width="1172.92"
       y="0"
       x="0"
       style="stroke-width:1.26852" /><use
       id="use3394-0-9"
       xlink:href="#g5066-6-2"
       transform="translate(177.00927)"
       height="113.29"
       width="1172.92"
       y="0"
       x="0"
       style="stroke-width:1.26852" /><use
       id="use3396-6-6"
       xlink:href="#g5066-6-2"
       transform="translate(212.40713)"
       height="113.29"
       width="1172.92"
       y="0"
       x="0"
       style="stroke-width:1.26852" /><use
       id="use3398-1-2"
       xlink:href="#g5066-6-2"
       transform="translate(247.80499)"
       height="113.29"
       width="1172.92"
       y="0"
       x="0"
       style="stroke-width:1.26852" /><use
       id="use3400-5-5"
       xlink:href="#g5066-6-2"
       transform="translate(283.20285)"
       height="113.29"
       width="1172.92"
       y="0"
       x="0"
       style="stroke-width:1.26852" /><use
       id="use3402-9-4"
       xlink:href="#g5066-6-2"
       transform="translate(318.6107)"
       height="113.29"
       width="1172.92"
       y="0"
       x="0"
       style="stroke-width:1.26852" /><use
       id="use3404-4-4"
       xlink:href="#g5066-6-2"
       transform="translate(354.00856)"
       height="113.29"
       width="1172.92"
       y="0"
       x="0"
       style="stroke-width:1.26852" /><use
       id="use3406-9-9"
       xlink:href="#g5066-6-2"
       transform="translate(389.40641)"
       height="113.29"
       width="1172.92"
       y="0"
       x="0"
       style="stroke-width:1.26852" /><use
       id="use3408-0-9"
       xlink:href="#g5066-6-2"
       transform="translate(424.81426)"
       height="113.29"
       width="1172.92"
       y="0"
       x="0"
       style="stroke-width:1.26852" /><use
       id="use3410-9-3"
       xlink:href="#g5066-6-2"
       transform="translate(460.21212)"
       height="113.29"
       width="1172.92"
       y="0"
       x="0"
       style="stroke-width:1.26852" /><use
       id="use3412-1-6"
       xlink:href="#g5066-6-2"
       transform="translate(495.60998)"
       height="113.29"
       width="1172.92"
       y="0"
       x="0"
       style="stroke-width:1.26852" /><path
       style="fill:none;fill-rule:evenodd;stroke:#000000;stroke-width:0.720113;stroke-linecap:butt;stroke-linejoin:miter;stroke-miterlimit:4;stroke-dasharray:none;stroke-opacity:1"
       d="M 538.82317,52.757149 V 41.84126"
       id="path5178-7-0"
       inkscape:connector-curvature="0" /><path
       style="fill:none;fill-rule:evenodd;stroke:#000000;stroke-width:0.720113;stroke-linecap:butt;stroke-linejoin:miter;stroke-miterlimit:4;stroke-dasharray:none;stroke-opacity:1"
       d="M 542.36326,52.757149 V 41.84126"
       id="path5180-7-5"
       inkscape:connector-curvature="0" /><g
       transform="translate(0,0.41601295)"
       id="g4642-1-0"
       style="stroke-width:1.26852"><text
         id="text3620-1-2"
         y="77.034706"
         x="35.920212"
         xml:space="preserve"
         style="font-style:normal;font-variant:normal;font-weight:normal;font-stretch:normal;font-size:12.5px;line-height:0%;font-family:Marvel;-inkscape-font-specification:Marvel;fill:#000000;stroke-width:0.908292"><tspan
           id="tspan3622-5-9"
           y="77.034706"
           x="35.920212"
           style="font-style:normal;font-variant:normal;font-weight:normal;font-stretch:normal;font-size:12.5px;font-family:Marvel;-inkscape-font-specification:Marvel;stroke-width:0.908292">10</tspan></text><text
         id="text3624-9-4"
         y="77.040955"
         x="69.728714"
         xml:space="preserve"
         style="font-style:normal;font-variant:normal;font-weight:normal;font-stretch:normal;font-size:12.5px;line-height:0%;font-family:Marvel;-inkscape-font-specification:Marvel;fill:#000000;stroke-width:1.26852"><tspan
           id="tspan3626-7-3"
           y="77.040955"
           x="69.728714"
           style="font-style:normal;font-variant:normal;font-weight:normal;font-stretch:normal;font-size:12.5px;font-family:Marvel;-inkscape-font-specification:Marvel;stroke-width:1.26852">20</tspan></text><text
         id="text3628-7-5"
         y="77.034706"
         x="104.95791"
         xml:space="preserve"
         style="font-style:normal;font-variant:normal;font-weight:normal;font-stretch:normal;font-size:12.5px;line-height:0%;font-family:Marvel;-inkscape-font-specification:Marvel;fill:#000000;stroke-width:1.26852"><tspan
           id="tspan3630-6-1"
           y="77.034706"
           x="104.95791"
           style="font-style:normal;font-variant:normal;font-weight:normal;font-stretch:normal;font-size:12.5px;font-family:Marvel;-inkscape-font-specification:Marvel;stroke-width:1.26852">30</tspan></text><text
         id="text3632-7-7"
         y="77.034706"
         x="141.27602"
         xml:space="preserve"
         style="font-style:normal;font-variant:normal;font-weight:normal;font-stretch:normal;font-size:12.5px;line-height:0%;font-family:Marvel;-inkscape-font-specification:Marvel;fill:#000000;stroke-width:1.26852"><tspan
           id="tspan3634-3-4"
           y="77.034706"
           x="141.27602"
           style="font-style:normal;font-variant:normal;font-weight:normal;font-stretch:normal;font-size:12.5px;font-family:Marvel;-inkscape-font-specification:Marvel;stroke-width:1.26852">40</tspan></text><text
         id="text3636-6-3"
         y="77.034706"
         x="176.28511"
         xml:space="preserve"
         style="font-style:normal;font-variant:normal;font-weight:normal;font-stretch:normal;font-size:12.5px;line-height:0%;font-family:Marvel;-inkscape-font-specification:Marvel;fill:#000000;stroke-width:1.26852"><tspan
           id="tspan3638-5-1"
           y="77.034706"
           x="176.28511"
           style="font-style:normal;font-variant:normal;font-weight:normal;font-stretch:normal;font-size:12.5px;font-family:Marvel;-inkscape-font-specification:Marvel;stroke-width:1.26852">50</tspan></text><text
         id="text3640-6-4"
         y="77.040955"
         x="211.67958"
         xml:space="preserve"
         style="font-style:normal;font-variant:normal;font-weight:normal;font-stretch:normal;font-size:12.5px;line-height:0%;font-family:Marvel;-inkscape-font-specification:Marvel;fill:#000000;stroke-width:1.26852"><tspan
           id="tspan3642-3-6"
           y="77.040955"
           x="211.67958"
           style="font-style:normal;font-variant:normal;font-weight:normal;font-stretch:normal;font-size:12.5px;font-family:Marvel;-inkscape-font-specification:Marvel;stroke-width:1.26852">60</tspan></text><text
         id="text3644-9-9"
         y="77.034706"
         x="247.67461"
         xml:space="preserve"
         style="font-style:normal;font-variant:normal;font-weight:normal;font-stretch:normal;font-size:12.5px;line-height:0%;font-family:Marvel;-inkscape-font-specification:Marvel;fill:#000000;stroke-width:1.26852"><tspan
           id="tspan3646-4-4"
           y="77.034706"
           x="247.67461"
           style="font-style:normal;font-variant:normal;font-weight:normal;font-stretch:normal;font-size:12.5px;font-family:Marvel;-inkscape-font-specification:Marvel;stroke-width:1.26852">70</tspan></text><text
         id="text3648-8-2"
         y="77.034706"
         x="282.40234"
         xml:space="preserve"
         style="font-style:normal;font-variant:normal;font-weight:normal;font-stretch:normal;font-size:12.5px;line-height:0%;font-family:Marvel;-inkscape-font-specification:Marvel;fill:#000000;stroke-width:1.26852"><tspan
           id="tspan3650-1-2"
           y="77.034706"
           x="282.40234"
           style="font-style:normal;font-variant:normal;font-weight:normal;font-stretch:normal;font-size:12.5px;font-family:Marvel;-inkscape-font-specification:Marvel;stroke-width:1.26852">80</tspan></text><text
         id="text3652-2-6"
         y="77.028458"
         x="317.19833"
         xml:space="preserve"
         style="font-style:normal;font-variant:normal;font-weight:normal;font-stretch:normal;font-size:12.5px;line-height:0%;font-family:Marvel;-inkscape-font-specification:Marvel;fill:#000000;stroke-width:1.26852"><tspan
           id="tspan3654-9-4"
           y="77.028458"
           x="317.19833"
           style="font-style:normal;font-variant:normal;font-weight:normal;font-stretch:normal;font-size:12.5px;font-family:Marvel;-inkscape-font-specification:Marvel;stroke-width:1.26852">90</tspan></text><text
         id="text3656-3-1"
         y="77.034706"
         x="351.09805"
         xml:space="preserve"
         style="font-style:normal;font-variant:normal;font-weight:normal;font-stretch:normal;font-size:12.5px;line-height:0%;font-family:Marvel;-inkscape-font-specification:Marvel;fill:#000000;stroke-width:1.26852"><tspan
           id="tspan3658-9-2"
           y="77.034706"
           x="351.09805"
           style="font-style:normal;font-variant:normal;font-weight:normal;font-stretch:normal;font-size:12.5px;font-family:Marvel;-inkscape-font-specification:Marvel;stroke-width:1.26852">100</tspan></text><text
         id="text3660-0-8"
         y="77.034706"
         x="387.90271"
         xml:space="preserve"
         style="font-style:normal;font-variant:normal;font-weight:normal;font-stretch:normal;font-size:12.5px;line-height:0%;font-family:Marvel;-inkscape-font-specification:Marvel;fill:#000000;stroke-width:1.26852"><tspan
           id="tspan3662-8-8"
           y="77.034706"
           x="387.90271"
           style="font-style:normal;font-variant:normal;font-weight:normal;font-stretch:normal;font-size:12.5px;font-family:Marvel;-inkscape-font-specification:Marvel;stroke-width:1.26852">110</tspan></text><text
         id="text3664-8-9"
         y="77.040955"
         x="422.85159"
         xml:space="preserve"
         style="font-style:normal;font-variant:normal;font-weight:normal;font-stretch:normal;font-size:12.5px;line-height:0%;font-family:Marvel;-inkscape-font-specification:Marvel;fill:#000000;stroke-width:1.26852"><tspan
           id="tspan3666-5-2"
           y="77.040955"
           x="422.85159"
           style="font-style:normal;font-variant:normal;font-weight:normal;font-stretch:normal;font-size:12.5px;font-family:Marvel;-inkscape-font-specification:Marvel;stroke-width:1.26852">120</tspan></text><text
         id="text3668-0-8"
         y="77.034706"
         x="458.15479"
         xml:space="preserve"
         style="font-style:normal;font-variant:normal;font-weight:normal;font-stretch:normal;font-size:12.5px;line-height:0%;font-family:Marvel;-inkscape-font-specification:Marvel;fill:#000000;stroke-width:1.26852"><tspan
           id="tspan3670-9-8"
           y="77.034706"
           x="458.15479"
           style="font-style:normal;font-variant:normal;font-weight:normal;font-stretch:normal;font-size:12.5px;font-family:Marvel;-inkscape-font-specification:Marvel;stroke-width:1.26852">130</tspan></text><text
         id="text3672-6-8"
         y="77.034706"
         x="493.67871"
         xml:space="preserve"
         style="font-style:normal;font-variant:normal;font-weight:normal;font-stretch:normal;font-size:12.5px;line-height:0%;font-family:Marvel;-inkscape-font-specification:Marvel;fill:#000000;stroke-width:1.26852"><tspan
           id="tspan3674-3-6"
           y="77.034706"
           x="493.67871"
           style="font-style:normal;font-variant:normal;font-weight:normal;font-stretch:normal;font-size:12.5px;font-family:Marvel;-inkscape-font-specification:Marvel;stroke-width:1.26852">140</tspan></text><text
         id="text3676-8-8"
         y="77.034706"
         x="528.86908"
         xml:space="preserve"
         style="font-style:normal;font-variant:normal;font-weight:normal;font-stretch:normal;font-size:12.5px;line-height:0%;font-family:Marvel;-inkscape-font-specification:Marvel;fill:#000000;stroke-width:1.26852"><tspan
           id="tspan3678-5-3"
           y="77.034706"
           x="528.86908"
           style="font-style:normal;font-variant:normal;font-weight:normal;font-stretch:normal;font-size:12.5px;font-family:Marvel;-inkscape-font-specification:Marvel;stroke-width:1.26852">150</tspan></text></g><path
       id="text3473-6-8"
       style="fill:#000000;stroke-width:0.920339"
       d="m 8.1267055,84.148697 c 0,-0.370013 0.037727,-0.66675 0.1131806,-0.89166 0.076905,-0.225636 0.18936,-0.400485 0.3388165,-0.522372 0.1509075,-0.122613 0.3402674,-0.183556 0.5673542,-0.183556 0.1675944,0 0.3148744,0.0341 0.4418402,0.102298 0.12624,0.06675 0.2307144,0.164692 0.3134233,0.292383 0.081983,0.12624 0.1472797,0.281501 0.1937127,0.465056 0.04716,0.182105 0.07038,0.428055 0.07038,0.737851 0,0.366386 -0.03773,0.663123 -0.113181,0.889484 -0.074728,0.224185 -0.187909,0.398309 -0.3388165,0.522372 -0.1494565,0.121887 -0.3380913,0.183556 -0.5673547,0.183556 -0.3010895,0 -0.5383336,-0.108102 -0.7102811,-0.324306 C 8.2297289,85.159342 8.1267055,84.73564 8.1267055,84.148697 m 0.3946812,0 c 0,0.512941 0.059492,0.855385 0.1792027,1.025881 0.1204358,0.169046 0.2691668,0.253206 0.4454674,0.253206 0.1763006,0 0.3243061,-0.08489 0.4440168,-0.255382 0.1204358,-0.170497 0.1806537,-0.512215 0.1806537,-1.023705 0,-0.515117 -0.060218,-0.856835 -0.1806537,-1.025881 -0.1197107,-0.169045 -0.2691672,-0.253931 -0.4483699,-0.253931 -0.1763006,0 -0.3170509,0.07473 -0.4222508,0.224185 -0.1320441,0.190085 -0.1980662,0.541961 -0.1980662,1.055627 m 2.2520053,1.541724 v -0.437487 h 0.437486 v 0.437487 h -0.437486 m 0.996135,-0.819109 0.402661,-0.0341 c 0.02975,0.196615 0.09867,0.343895 0.206773,0.444016 0.109553,0.09795 0.241597,0.146555 0.394681,0.146555 0.185007,0 0.341718,-0.06965 0.469409,-0.208949 0.127691,-0.1393 0.191537,-0.323581 0.191537,-0.554295 0,-0.219106 -0.06167,-0.391779 -0.185007,-0.518019 -0.122612,-0.126966 -0.282952,-0.190086 -0.482469,-0.190086 -0.123338,0 -0.235067,0.02829 -0.334463,0.08561 -0.0994,0.05514 -0.177752,0.127691 -0.234342,0.217655 l -0.360582,-0.04716 0.302541,-1.605569 h 1.554783 v 0.366386 h -1.24789 l -0.16832,0.840148 c 0.187909,-0.130593 0.384524,-0.195889 0.590571,-0.195889 0.27352,0 0.503509,0.09432 0.691418,0.283677 0.187909,0.188634 0.2815,0.432408 0.2815,0.729144 0,0.282952 -0.08271,0.527451 -0.247401,0.733498 -0.200242,0.253206 -0.474488,0.380171 -0.821285,0.380171 -0.284403,0 -0.516568,-0.07981 -0.697222,-0.239421 -0.179202,-0.158888 -0.2815,-0.370013 -0.306893,-0.633376"
       inkscape:connector-curvature="0" /><path
       id="text3477-1-3"
       style="fill:#000000;stroke-width:0.920339"
       d="m 17.910302,85.744109 v -2.265064 h 0.34317 v 0.317776 c 0.0711,-0.111004 0.165417,-0.200242 0.283677,-0.26699 0.118259,-0.0682 0.25248,-0.102298 0.403387,-0.102298 0.167595,0 0.304717,0.03482 0.411368,0.104475 0.108102,0.06965 0.184282,0.167594 0.227813,0.292383 0.179202,-0.264814 0.412819,-0.396858 0.700123,-0.396858 0.224185,0 0.396858,0.0624 0.51802,0.187909 0.120435,0.123338 0.181379,0.314875 0.181379,0.573884 v 1.554783 h -0.381622 v -1.427092 c 0,-0.153809 -0.01306,-0.264088 -0.03845,-0.330836 -0.02467,-0.0682 -0.06892,-0.122612 -0.134946,-0.163966 -0.0653,-0.04135 -0.141475,-0.06167 -0.229989,-0.06167 -0.158888,0 -0.291657,0.05296 -0.396857,0.159613 -0.1052,0.1052 -0.157438,0.274246 -0.157438,0.507862 v 1.316088 h -0.383798 v -1.472074 c 0,-0.170496 -0.0312,-0.298187 -0.09432,-0.383798 -0.0624,-0.08489 -0.164693,-0.127691 -0.306894,-0.127691 -0.108102,0 -0.208223,0.02829 -0.300364,0.08488 -0.09142,0.05732 -0.157437,0.140025 -0.198792,0.249578 -0.04135,0.109553 -0.06167,0.267716 -0.06167,0.473763 v 1.175337 H 17.9103 m 3.642095,0 v -2.265064 h 0.343895 v 0.317776 c 0.0711,-0.111004 0.165418,-0.200242 0.283677,-0.26699 0.117534,-0.0682 0.25248,-0.102298 0.402662,-0.102298 0.167595,0 0.305443,0.03482 0.412094,0.104475 0.107376,0.06965 0.183556,0.167594 0.227812,0.292383 0.179203,-0.264814 0.412094,-0.396858 0.699399,-0.396858 0.22491,0 0.397583,0.0624 0.518744,0.187909 0.120436,0.123338 0.180654,0.314875 0.180654,0.573884 v 1.554783 H 24.23971 v -1.427092 c 0,-0.153809 -0.01233,-0.264088 -0.03845,-0.330836 -0.02394,-0.0682 -0.06892,-0.122612 -0.134221,-0.163966 -0.0653,-0.04135 -0.142201,-0.06167 -0.229989,-0.06167 -0.159614,0 -0.291658,0.05296 -0.396858,0.159613 -0.1052,0.1052 -0.158162,0.274246 -0.158162,0.507862 v 1.316088 h -0.383799 v -1.472074 c 0,-0.170496 -0.0312,-0.298187 -0.09359,-0.383798 -0.06239,-0.08489 -0.164692,-0.127691 -0.306893,-0.127691 -0.108102,0 -0.208224,0.02829 -0.30109,0.08488 -0.09069,0.05732 -0.156711,0.140025 -0.198066,0.249578 -0.04135,0.109553 -0.06167,0.267716 -0.06167,0.473763 v 1.175337 h -0.384524"
       inkscape:connector-curvature="0" /><use
       id="use3485-1-3"
       xlink:href="#text3477-1-3"
       transform="matrix(0.99999156,0,0,0.99999156,-10.053225,-25.094259)"
       height="113.29"
       width="1172.92"
       y="0"
       x="0"
       style="stroke-width:1.26852" /><use
       x="0"
       y="0"
       width="744.09448"
       height="1052.3622"
       transform="translate(354.01155)"
       xlink:href="#g3500-6-7"
       id="use4731-5-3"
       style="stroke-width:1.26852" /><use
       id="use4733-9-8"
       xlink:href="#g3500-6-7"
       transform="translate(389.4124)"
       height="1052.3622"
       width="744.09448"
       y="0"
       x="0"
       style="stroke-width:1.26852" /><use
       id="use4735-8-0"
       xlink:href="#g3500-6-7"
       transform="translate(424.81325)"
       height="1052.3622"
       width="744.09448"
       y="0"
       x="0"
       style="stroke-width:1.26852" /><use
       x="0"
       y="0"
       width="744.09448"
       height="1052.3622"
       transform="translate(460.2141)"
       xlink:href="#g3500-6-7"
       id="use4737-4-4"
       style="stroke-width:1.26852" /><use
       x="0"
       y="0"
       width="744.09448"
       height="1052.3622"
       transform="translate(495.61495)"
       xlink:href="#g3500-6-7"
       id="use4739-8-7"
       style="stroke-width:1.26852" /><path
       inkscape:connector-curvature="0"
       id="path4743-1-6"
       d="M 538.82317,105.1916 V 94.275713"
       style="fill:none;fill-rule:evenodd;stroke:#000000;stroke-width:0.720113;stroke-linecap:butt;stroke-linejoin:miter;stroke-miterlimit:4;stroke-dasharray:none;stroke-opacity:1" /><path
       inkscape:connector-curvature="0"
       id="path4745-0-8"
       d="M 542.36326,105.1916 V 94.275713"
       style="fill:none;fill-rule:evenodd;stroke:#000000;stroke-width:0.720113;stroke-linecap:butt;stroke-linejoin:miter;stroke-miterlimit:4;stroke-dasharray:none;stroke-opacity:1" /><path
       inkscape:connector-curvature="0"
       id="path4747-3-9"
       d="M 537.05513,99.759663 V 105.1534"
       style="fill:none;fill-rule:evenodd;stroke:#000000;stroke-width:0.59462;stroke-linecap:butt;stroke-linejoin:miter;stroke-miterlimit:4;stroke-dasharray:none;stroke-opacity:1" /><path
       style="fill:none;fill-rule:evenodd;stroke:#000000;stroke-width:0.59462;stroke-linecap:butt;stroke-linejoin:miter;stroke-miterlimit:4;stroke-dasharray:none;stroke-opacity:1"
       d="M 540.61829,99.759663 V 105.1534"
       id="path4749-0-0"
       inkscape:connector-curvature="0" /></g><path
     style="fill:#1e1e1e;fill-opacity:0.3;fill-rule:nonzero;stroke:#1e1e1e;stroke-width:1.99938;stroke-linecap:round;stroke-linejoin:round;stroke-miterlimit:4;stroke-dasharray:none;stroke-dashoffset:0;stroke-opacity:0.46759"
     id="path4431-7-7"
     d="m 974.71534,255.66174 c -0.6562,-1.17951 -1.1929,-2.5003 -1.9701,-3.53863 -2.548,-3.40416 -5.4831,-5.69378 -8.879,-7.31642 -1.6004,-0.76455 -3.311,-1.02133 -4.9773,-1.46178 -11.1866,-2.95699 -7.6547,-2.08299 -19.7523,-3.54321 -3.8986,-0.0308 -7.8008,-0.30585 -11.6959,-0.0846 -12.4077,0.70441 -24.7289,3.70976 -36.5444,8.84162 -3.7528,1.62999 -7.4665,3.45521 -11.0791,5.58298 -3.3256,1.95882 -6.468,4.4381 -9.702,6.65704 -5.5012,5.11986 -9.4993,7.87589 -13.5632,15.01119 -2.158,3.7891 -4.1102,8.90376 -2.6762,13.88965 1.6963,5.89819 6.0785,7.66999 9.7569,10.36911 7.8383,2.62465 10.0994,3.70011 19.0991,4.88212 4.5691,0.60031 9.1652,0.83477 13.7556,0.92059 11.2285,0.20989 19.69,-0.56695 30.895,-2.22808 5.3596,-0.79455 10.6889,-1.91967 16.0335,-2.87954 12.586,-2.988 17.2458,-3.8196 29.4602,-7.75013 3.9957,-1.28591 8.0005,-2.56762 11.9111,-4.26179 4.703,-2.03744 11.7289,-5.57402 15.57466,-10.49908 1.3537,-1.73359 2.0151,-4.23702 3.0224,-6.35543 -0.062,-2.22044 0.3848,-4.57617 -0.1857,-6.66127 -1.6634,-6.07746 -6.42286,-10.5685 -10.30056,-13.48072 -2.5613,-1.92404 -5.3032,-3.43821 -8.0994,-4.63046 -12.2931,-5.2417 -15.5368,-4.78176 -28.7733,-6.774 -5.8473,-0.031 -11.7001,-0.42802 -17.5419,-0.0875 -11.8616,0.69146 -23.9691,2.97599 -35.6115,6.03253 -9.8073,2.5747 -20.0976,6.06094 -29.5574,10.52945 -3.8225,1.80561 -7.5082,4.09872 -11.2621,6.14808 -6.1893,4.74136 -9.8404,6.58678 -14.6198,13.45128 -1.8733,2.6906 -4.7142,7.63309 -3.4115,12.01188 1.3053,4.38705 4.3975,4.82829 7.1622,6.05088 3.2758,0.77185 6.5307,1.72966 9.8278,2.31551 8.3825,1.48946 19.5416,2.44024 27.8501,2.81244 11.5713,0.51871 22.0094,0.49469 33.5839,-0.57665 5.8267,-0.539 11.6246,-1.5429 17.4368,-2.31434 13.5581,-3.01318 18.7501,-3.68808 31.7987,-8.37735 6.0322,-2.1678 15.538,-5.90548 21.1123,-10.88105 1.6824,-1.50177 2.8059,-3.908 4.2088,-5.86199 0.3967,-1.1053 2.7191,0.40638 2.322,1.51208 v 0 c -1.5362,1.90366 -2.8246,4.25075 -4.6087,5.71092 -5.7818,4.73189 -15.5622,8.40056 -21.6969,10.51719 -13.2629,4.57594 -18.2546,5.23004 -32.001,8.25117 -5.8023,0.78332 -11.5899,1.79183 -17.4067,2.34977 -11.5222,1.10512 -21.8498,1.1804 -33.3704,0.76503 -7.9555,-0.28691 -19.2952,-1.12024 -27.3745,-2.39608 -3.207,-0.50632 -6.3794,-1.35267 -9.569,-2.02901 -2.5982,-1.37755 -10.3784,-3.46868 -11.87748,-9.23649 -1.16336,-4.47653 1.96008,-9.4553 3.87618,-12.04399 5.0379,-6.80597 8.6761,-8.54373 15.082,-13.23312 3.8266,-2.00464 7.5888,-4.2474 11.4797,-6.0138 9.5509,-4.33587 20.0392,-7.76001 29.9009,-10.30286 11.6625,-3.00734 23.719,-5.30992 35.5913,-6.08092 5.7845,-0.37574 11.5826,-0.0476 17.3739,-0.0696 5.1493,0.71846 10.3407,1.01304 15.4477,2.15534 8.9855,2.0099 16.9132,5.35222 24.9625,11.14765 3.9225,2.82461 8.97286,7.77752 10.59196,13.94139 0.5633,2.14531 0.036,4.55024 0.054,6.82527 -1.0885,2.11793 -1.839,4.63795 -3.2657,6.35395 -3.99686,4.80733 -11.31696,8.28228 -16.07976,10.2418 -3.9828,1.63864 -8.0533,2.86887 -12.1121,4.12424 -12.3728,3.82663 -16.9163,4.64867 -29.6369,7.63537 -5.3357,0.96987 -10.6572,2.09564 -16.0074,2.90948 -11.2395,1.70986 -19.4361,2.52138 -30.6944,2.4184 -7.645,-0.0695 -17.5938,-0.66705 -25.1969,-2.99853 -3.9193,-1.20184 -7.673,-3.23095 -11.5095,-4.8465 -3.7914,-2.82943 -8.2889,-4.64267 -9.9316,-10.82904 -1.3546,-5.101 0.8376,-10.24174 3.072,-13.96053 4.229,-7.03728 8.2996,-9.82005 13.8854,-14.89675 3.2681,-2.20595 6.448,-4.66631 9.8043,-6.61795 3.6366,-2.11454 7.3712,-3.93194 11.143,-5.5622 11.8107,-5.1051 24.0992,-8.16815 36.4943,-8.95991 3.8645,-0.24692 7.7378,-0.005 11.6066,-0.0111 3.5111,0.38335 7.0372,0.56577 10.5331,1.14938 7.0564,1.17804 11.7743,2.7434 18.4961,6.1803 3.6477,1.86511 6.3755,3.9584 9.124,7.59133 0.8205,1.08451 1.4109,2.4448 2.1165,3.66719 -0.3406,1.3826 -3.246,0.0832 -2.9049,-1.29948 z"
     inkscape:connector-curvature="0" /></svg>
