<?xml version="1.0" encoding="UTF-8"?>
<svg width="1020" height="540" version="1.0" xmlns="http://www.w3.org/2000/svg">
 <g fill-rule="evenodd" stroke="#000" stroke-width="5">
  <path d="m174.11 104h170"/>
  <path d="m174.11 364h170"/>
  <path d="m473.64 104.27h170"/>
  <path d="m473.64 364.27h170"/>
  <path d="m775.15 104.32h170"/>
  <path d="m775.15 364.32h170"/>
 </g>
 <g fill="none" stroke="#c80000" stroke-width="5">
  <path d="m26.324 214c9.9299-20.326 14.895 0 14.895 0s-9.9299-20.326 0 0 14.895 0 14.895 0"/>
  <path d="m56.678 214c9.9299-20.326 14.895 0 14.895 0s-9.9299-20.326 0 0 14.895 0 14.895 0"/>
  <path d="m86.678 214c9.9299-20.326 14.895 0 14.895 0s-9.9299-20.326 0 0 14.895 0 14.895 0"/>
  <path d="m117.04 214c9.9299-20.326 14.895 0 14.895 0s-9.9299-20.326 0 0 14.895 0 14.895 0"/>
 </g>
 <path d="m144.47 211.5v5h40v-5z" fill="#c80000" fill-rule="evenodd"/>
 <path d="m164.47 214-10 10 35-10-35-10z" fill="#c80000" fill-rule="evenodd" stroke="#c80000" stroke-width="2pt"/>
 <g fill="none" stroke="#c80000" stroke-width="5">
  <path d="m457.4 214c9.9299-20.326 14.895 0 14.895 0s-9.9299-20.326 0 0 14.895 0 14.895 0"/>
  <path d="m487.75 214c9.9299-20.326 14.895 0 14.895 0s-9.9299-20.326 0 0 14.895 0 14.895 0"/>
  <path d="m517.75 214c9.9299-20.326 14.895 0 14.895 0s-9.9299-20.326 0 0 14.895 0 14.895 0"/>
  <path d="m548.11 214c9.9299-20.326 14.895 0 14.895 0s-9.9299-20.326 0 0 14.895 0 14.895 0"/>
 </g>
 <path d="m575.54 211.5v5h40v-5z" fill="#c80000" fill-rule="evenodd"/>
 <path d="m595.54 214-10 10 35-10-35-10z" fill="#c80000" fill-rule="evenodd" stroke="#c80000" stroke-width="2pt"/>
 <g fill="none" stroke="#c80000" stroke-width="5">
  <path d="m850.5 174c9.9299-20.326 14.895 0 14.895 0s-9.9299-20.326 0 0 14.895 0 14.895 0"/>
  <path d="m880.86 174c9.9299-20.326 14.895 0 14.895 0s-9.9299-20.326 0 0 14.895 0 14.895 0"/>
  <path d="m910.86 174c9.9299-20.326 14.895 0 14.895 0s-9.9299-20.326 0 0 14.895 0 14.895 0"/>
  <path d="m941.22 174c9.9299-20.326 14.895 0 14.895 0s-9.9299-20.326 0 0 14.895 0 14.895 0"/>
 </g>
 <path d="m968.65 171.5v5h40v-5z" fill="#c80000" fill-rule="evenodd"/>
 <path d="m988.65 174-10 10 35-10-35-10z" fill="#c80000" fill-rule="evenodd" stroke="#c80000" stroke-width="2pt"/>
 <g fill="none" stroke="#c80000" stroke-width="5">
  <path d="m850.5 274c9.9299-20.326 14.895 0 14.895 0s-9.9299-20.326 0 0 14.895 0 14.895 0"/>
  <path d="m880.86 274c9.9299-20.326 14.895 0 14.895 0s-9.9299-20.326 0 0 14.895 0 14.895 0"/>
  <path d="m910.86 274c9.9299-20.326 14.895 0 14.895 0s-9.9299-20.326 0 0 14.895 0 14.895 0"/>
  <path d="m941.22 274c9.9299-20.326 14.895 0 14.895 0s-9.9299-20.326 0 0 14.895 0 14.895 0"/>
 </g>
 <g fill="#c80000" fill-rule="evenodd">
  <path d="m968.65 271.5v5h40v-5z"/>
  <path d="m988.65 274-10 10 35-10-35-10z" stroke="#c80000" stroke-width="2pt"/>
  <path d="m73.47 154.32v-0.1737h-0.04036v-0.1158l-0.04036-0.0579v-0.0579h-0.04036v-0.0579h-0.04036l-0.04036-0.0579h-0.04036l-0.04036-0.0579h-0.12108v-0.0579h-0.12108c-0.92837 0-3.8749 0.46322-4.9244 0.57903-0.28255 0.0579-0.76692 0.11581-0.76692 1.1581 0 0.69484 0.36328 0.69484 0.96874 0.69484 1.9375 0 2.0182 0.40532 2.0182 0.98435l-0.12109 1.1581-5.8124 33.236c-0.16146 0.81064-0.16146 0.92645-0.16146 1.2739 0 1.3318 0.80728 1.6213 1.1706 1.6213 0.64582 0 1.2916-0.69484 1.4935-1.5055l0.76692-4.4006 0.84764-5.2113c0.24218-1.2739 0.48437-2.4898 0.68619-3.8216 0.08073-0.34741 0.40364-2.2582 0.444-2.6056 0.12109-0.52113 1.3724-3.7637 2.7448-5.3271 0.88801-0.92644 2.1393-2.0266 3.8749-2.0266s2.1393 1.9687 2.1393 4.0532c0 3.1268-1.4935 9.3803-2.4622 12.912-0.32291 1.3318-0.52473 2.0266-0.52473 3.1847 0 2.7214 1.4127 4.748 3.2695 4.748 3.7942 0 5.2877-8.4538 5.2877-8.9171 0-0.57903-0.36328-0.57903-0.48437-0.57903-0.40364 0-0.40364 0.17371-0.60546 1.0422-0.60546 3.0689-1.8971 7.18-4.0768 7.18-0.68619 0-1.0091-0.57903-1.0091-1.9108 0-1.4476 0.36328-2.8372 0.72655-4.1111 0.64582-2.4898 2.4622-9.3224 2.4622-12.681 0-3.7637-1.6146-6.1956-4.6015-6.1956-2.5429 0-4.4804 1.795-5.9739 4.4585z" stroke-miterlimit="10.433" stroke-width="0"/>
  <path d="m94.096 168.85v-0.1737h-0.04036v-0.1158l-0.08073-0.11581v-0.0579h-0.08072v-0.0579h-0.04036l-0.04036-0.0579h-0.16144v-0.0579h-0.08072c-0.92837 0-3.8749 0.46323-4.9244 0.57903-0.32291 0.0579-0.72655 0.11581-0.72655 1.1581 0 0.69484 0.36328 0.69484 0.92837 0.69484 1.9375 0 2.0182 0.40532 2.0182 0.98435 0 0.40532-0.48437 3.1268-0.76692 4.6901l-2.4622 14.128c-0.12109 0.86855-0.40364 2.4898-0.40364 2.6056 0 0.63693 0.40364 0.69484 0.64582 0.69484h0.52473c2.8255-0.69484 7.2252-2.9531 11.342-8.5118 5.328-7.0642 6.4179-14.939 6.4179-15.46 0-0.98435-0.48437-1.5634-1.1706-1.5634-0.32291 0-1.2513 0.23161-1.5742 1.9108-2.5833 13.086-8.6783 19.571-13.28 21.714z" stroke-miterlimit="10.433" stroke-width="0"/>
 </g>
 <g fill-rule="evenodd" stroke="#000" stroke-width="2">
  <path d="m286.11 104c0 11.046-8.9543 20-20 20s-20-8.9543-20-20 8.9543-20 20-20 20 8.9543 20 20z" fill="#00c800"/>
  <path d="m580.11 104c0 11.046-8.9543 20-20 20s-20-8.9543-20-20 8.9543-20 20-20 20 8.9543 20 20z" fill="#fff" stroke-dasharray="8, 8"/>
  <path d="m580.11 366c0 11.046-8.9543 20-20 20s-20-8.9543-20-20 8.9543-20 20-20 20 8.9543 20 20z" fill="#00c800"/>
  <path d="m880.11 364c0 11.046-8.9543 20-20 20s-20-8.9543-20-20 8.9543-20 20-20 20 8.9543 20 20z" fill="#00c800"/>
 </g>
 <g fill="#c80000" fill-rule="evenodd" stroke-miterlimit="10.433" stroke-width="0">
  <path d="m505.28 154.61v-0.17371h-0.0404v-0.1158l-0.0404-0.0579v-0.0579h-0.0404v-0.0579h-0.0404l-0.0404-0.0579h-0.0404l-0.0404-0.0579h-0.12109v-0.0579h-0.12109c-0.92838 0-3.875 0.46322-4.9244 0.57903-0.28255 0.0579-0.76692 0.11581-0.76692 1.1581 0 0.69484 0.36328 0.69484 0.96874 0.69484 1.9375 0 2.0182 0.40532 2.0182 0.98435l-0.12109 1.1581-5.8124 33.236c-0.16146 0.81064-0.16146 0.92645-0.16146 1.2739 0 1.3318 0.80728 1.6213 1.1706 1.6213 0.64582 0 1.2916-0.69484 1.4935-1.5055l0.76691-4.4006 0.84765-5.2113c0.24218-1.2739 0.48437-2.4898 0.68619-3.8216 0.0807-0.34741 0.40364-2.2582 0.444-2.6056 0.12109-0.52113 1.3724-3.7637 2.7448-5.3271 0.88801-0.92644 2.1393-2.0266 3.875-2.0266 1.7356 0 2.1393 1.9687 2.1393 4.0532 0 3.1268-1.4935 9.3803-2.4622 12.912-0.32291 1.3318-0.52473 2.0266-0.52473 3.1847 0 2.7214 1.4127 4.748 3.2695 4.748 3.7942 0 5.2877-8.4538 5.2877-8.9171 0-0.57903-0.36328-0.57903-0.48437-0.57903-0.40364 0-0.40364 0.17371-0.60546 1.0422-0.60546 3.0689-1.8971 7.18-4.0768 7.18-0.68619 0-1.0091-0.57903-1.0091-1.9108 0-1.4476 0.36327-2.8372 0.72655-4.1111 0.64582-2.4898 2.4622-9.3224 2.4622-12.681 0-3.7637-1.6146-6.1956-4.6015-6.1956-2.5429 0-4.4804 1.795-5.9739 4.4585z"/>
  <path d="m525.9 169.15v-0.1737h-0.0404v-0.11581l-0.0807-0.11581v-0.0579h-0.0807v-0.0579h-0.0404l-0.0404-0.0579h-0.16145v-0.0579h-0.0807c-0.92837 0-3.8749 0.46323-4.9244 0.57903-0.32291 0.0579-0.72655 0.11581-0.72655 1.1581 0 0.69484 0.36328 0.69484 0.92837 0.69484 1.9375 0 2.0182 0.40532 2.0182 0.98435 0 0.40532-0.48437 3.1268-0.76691 4.6901l-2.4622 14.128c-0.12109 0.86855-0.40364 2.4898-0.40364 2.6056 0 0.63693 0.40364 0.69484 0.64583 0.69484h0.52473c2.8255-0.69484 7.2252-2.9531 11.342-8.5118 5.328-7.0642 6.4179-14.939 6.4179-15.46 0-0.98435-0.48437-1.5634-1.1706-1.5634-0.32291 0-1.2513 0.23161-1.5742 1.9108-2.5833 13.086-8.6783 19.571-13.28 21.714z"/>
  <path d="m905.28 118.61v-0.17371h-0.0404v-0.1158l-0.0404-0.0579v-0.0579h-0.0404v-0.0579h-0.0404l-0.0404-0.0579h-0.0404l-0.0404-0.0579h-0.12109v-0.0579h-0.12109c-0.92838 0-3.875 0.46322-4.9244 0.57903-0.28255 0.0579-0.76692 0.11581-0.76692 1.1581 0 0.69484 0.36328 0.69484 0.96874 0.69484 1.9375 0 2.0182 0.40532 2.0182 0.98435l-0.12109 1.1581-5.8124 33.236c-0.16146 0.81064-0.16146 0.92645-0.16146 1.2739 0 1.3318 0.80728 1.6213 1.1706 1.6213 0.64582 0 1.2916-0.69484 1.4935-1.5055l0.76691-4.4006 0.84765-5.2113c0.24218-1.2739 0.48437-2.4898 0.68619-3.8216 0.0807-0.34741 0.40364-2.2582 0.444-2.6056 0.12109-0.52113 1.3724-3.7637 2.7448-5.3271 0.88801-0.92644 2.1393-2.0266 3.875-2.0266 1.7356 0 2.1393 1.9687 2.1393 4.0532 0 3.1268-1.4935 9.3803-2.4622 12.912-0.32291 1.3318-0.52473 2.0266-0.52473 3.1847 0 2.7214 1.4127 4.748 3.2695 4.748 3.7942 0 5.2877-8.4538 5.2877-8.9171 0-0.57903-0.36328-0.57903-0.48437-0.57903-0.40364 0-0.40364 0.17371-0.60546 1.0422-0.60546 3.0689-1.8971 7.18-4.0768 7.18-0.68619 0-1.0091-0.57903-1.0091-1.9108 0-1.4476 0.36327-2.8372 0.72655-4.1111 0.64582-2.4898 2.4622-9.3224 2.4622-12.681 0-3.7637-1.6146-6.1956-4.6015-6.1956-2.5429 0-4.4804 1.795-5.9739 4.4585z"/>
  <path d="m925.9 133.15v-0.1737h-0.0404v-0.11581l-0.0807-0.11581v-0.0579h-0.0807v-0.0579h-0.0404l-0.0404-0.0579h-0.16145v-0.0579h-0.0807c-0.92837 0-3.8749 0.46323-4.9244 0.57903-0.32291 0.0579-0.72655 0.11581-0.72655 1.1581 0 0.69484 0.36328 0.69484 0.92837 0.69484 1.9375 0 2.0182 0.40532 2.0182 0.98435 0 0.40532-0.48437 3.1268-0.76691 4.6901l-2.4622 14.128c-0.12109 0.86855-0.40364 2.4898-0.40364 2.6056 0 0.63693 0.40364 0.69484 0.64583 0.69484h0.52473c2.8255-0.69484 7.2252-2.9531 11.342-8.5118 5.328-7.0642 6.4179-14.939 6.4179-15.46 0-0.98435-0.48437-1.5634-1.1706-1.5634-0.32291 0-1.2513 0.23161-1.5742 1.9108-2.5833 13.086-8.6783 19.571-13.28 21.714z"/>
  <path d="m900.43 218.31v-0.17371h-0.0404v-0.1158l-0.0404-0.0579v-0.0579h-0.0404v-0.0579h-0.0404l-0.0404-0.0579h-0.0404l-0.0404-0.0579h-0.12109v-0.0579h-0.12109c-0.92838 0-3.875 0.46322-4.9244 0.57903-0.28255 0.0579-0.76692 0.11581-0.76692 1.1581 0 0.69484 0.36328 0.69484 0.96874 0.69484 1.9375 0 2.0182 0.40532 2.0182 0.98435l-0.12109 1.1581-5.8124 33.236c-0.16146 0.81064-0.16146 0.92645-0.16146 1.2739 0 1.3318 0.80728 1.6213 1.1706 1.6213 0.64582 0 1.2916-0.69484 1.4935-1.5055l0.76691-4.4006 0.84765-5.2113c0.24218-1.2739 0.48437-2.4898 0.68619-3.8216 0.0807-0.34741 0.40364-2.2582 0.444-2.6056 0.12109-0.52113 1.3724-3.7637 2.7448-5.3271 0.88801-0.92644 2.1393-2.0266 3.875-2.0266 1.7356 0 2.1393 1.9687 2.1393 4.0532 0 3.1268-1.4935 9.3803-2.4622 12.912-0.32291 1.3318-0.52473 2.0266-0.52473 3.1847 0 2.7214 1.4127 4.748 3.2695 4.748 3.7942 0 5.2877-8.4538 5.2877-8.9171 0-0.57903-0.36328-0.57903-0.48437-0.57903-0.40364 0-0.40364 0.17371-0.60546 1.0422-0.60546 3.0689-1.8971 7.18-4.0768 7.18-0.68619 0-1.0091-0.57903-1.0091-1.9108 0-1.4476 0.36327-2.8372 0.72655-4.1111 0.64582-2.4898 2.4622-9.3224 2.4622-12.681 0-3.7637-1.6146-6.1956-4.6015-6.1956-2.5429 0-4.4804 1.795-5.9739 4.4585z"/>
  <path d="m921.05 232.85v-0.1737h-0.0404v-0.11581l-0.0807-0.11581v-0.0579h-0.0807v-0.0579h-0.0404l-0.0404-0.0579h-0.16145v-0.0579h-0.0807c-0.92837 0-3.8749 0.46323-4.9244 0.57903-0.32291 0.0579-0.72655 0.11581-0.72655 1.1581 0 0.69484 0.36328 0.69484 0.92837 0.69484 1.9375 0 2.0182 0.40532 2.0182 0.98435 0 0.40532-0.48437 3.1268-0.76691 4.6901l-2.4622 14.128c-0.12109 0.86855-0.40364 2.4898-0.40364 2.6056 0 0.63693 0.40364 0.69484 0.64583 0.69484h0.52473c2.8255-0.69484 7.2252-2.9531 11.342-8.5118 5.328-7.0642 6.4179-14.939 6.4179-15.46 0-0.98435-0.48437-1.5634-1.1706-1.5634-0.32291 0-1.2513 0.23161-1.5742 1.9108-2.5833 13.086-8.6783 19.571-13.28 21.714z"/>
 </g>
 <g fill="#000000" font-family="sans-serif" font-weight="bold" text-anchor="middle">
  <text x="862.55469" y="24.385248" font-size="25.333px" stroke-width="1px" text-align="center" style="font-variant-caps:normal;font-variant-east-asian:normal;font-variant-ligatures:normal;font-variant-numeric:normal;line-height:100%" xml:space="preserve"><tspan x="862.55469" y="24.385248">After</tspan><tspan x="862.55469" y="52.385246">emission</tspan></text>
  <text x="860.49121" y="424.04346" font-size="25.333px" font-style="italic" stroke-width="1px" text-align="center" style="font-variant-caps:normal;font-variant-east-asian:normal;font-variant-ligatures:normal;font-variant-numeric:normal;line-height:100%" xml:space="preserve"><tspan x="860.49121" y="424.04346">Atom in</tspan><tspan x="860.49121" y="452.04346">ground state</tspan></text>
  <text transform="scale(.66885 1.4951)" x="123.52032" y="245.55635" font-size="32px" stroke-width=".99999px" text-align="center" style="font-variant-caps:normal;font-variant-east-asian:normal;font-variant-ligatures:normal;font-variant-numeric:normal;line-height:100%" xml:space="preserve"><tspan x="123.52032" y="245.55635" stroke-width=".99999px">Ground level</tspan></text>
  <text transform="scale(.66667 1.5)" x="123.08031" y="73.886276" font-size="32px" stroke-width="1px" text-align="center" style="font-variant-caps:normal;font-variant-east-asian:normal;font-variant-ligatures:normal;font-variant-numeric:normal;line-height:100%" xml:space="preserve"><tspan stroke-width="1px">Excited level</tspan></text>
 </g>
 <g font-family="sans-serif" stroke-width="1px" text-anchor="middle">
  <text transform="scale(.69368 1.4416)" x="140.75542" y="181.43744" fill="#c80000" font-size="26.667px" font-style="italic" stroke="#c80000" text-align="center" style="font-variant-caps:normal;font-variant-east-asian:normal;font-variant-ligatures:normal;font-variant-numeric:normal;line-height:100%" xml:space="preserve"><tspan x="140.75542" y="181.43744" stroke-width="1px">Incident photon</tspan></text>
  <text transform="scale(1.0186 .98174)" x="261.19153" y="25.271139" fill="#000000" font-size="25.333px" font-weight="bold" text-align="center" style="font-variant-caps:normal;font-variant-east-asian:normal;font-variant-ligatures:normal;font-variant-numeric:normal;line-height:100%" xml:space="preserve"><tspan x="261.19153" y="25.271139">Before</tspan><tspan x="261.19153" y="53.271694">emission</tspan></text>
  <text x="270.44043" y="424.00049" fill="#000000" font-size="25.333px" font-style="italic" font-weight="bold" text-align="center" style="font-variant-caps:normal;font-variant-east-asian:normal;font-variant-ligatures:normal;font-variant-numeric:normal;line-height:100%" xml:space="preserve"><tspan x="270.44043" y="424.00049">Atom in</tspan><tspan x="270.44043" y="452.00049">excited state</tspan></text>
 </g>
 <g fill-rule="evenodd">
  <path d="m295.11 104v260h2v-260z"/>
  <path d="m296.11 100.19-0.46875 1.6875-4 14-0.53125 1.8438 1.3438-1.375 3.6562-3.6562 3.6562 3.6562 1.3438 1.375-0.53125-1.8438-4-14zm0 3.5938 3.0312 10.562-2.6875-2.6875-0.34375-0.375-0.34375 0.375-2.6875 2.6875 3.0312-10.562z"/>
  <path d="m291.11 350.29 0.53125 1.8438 4 14 0.46875 1.6875 0.46875-1.6875 4-14 0.53125-1.8438-1.3438 1.375-3.6562 3.6562-3.6562-3.6562zm1.9688 3.375 2.6875 2.6875 0.34375 0.375 0.34375-0.375 2.6875-2.6875-3.0312 10.562-3.0312-10.562z"/>
  <path d="m557.61 124v220h5v-220z"/>
  <path d="m572.21 317.85-12.053 32.778-12.053-32.778c7.1162 5.2365 16.852 5.2063 24.106 1e-5z" stroke-linejoin="round" stroke-width=".625"/>
  <g stroke-miterlimit="10.433" stroke-width="0">
   <path d="m331.61 514.21v-0.112l0.056-0.056v-0.056l0.056-0.056v-0.112l0.056-0.056v-0.112h0.056v-0.168l0.056-0.056c0-0.056 0-0.61565-0.67161-0.61565-0.50372 0-0.61565 0.33581-0.72759 0.67161-3.6379 8.2273-5.7087 11.977-15.223 11.977h-8.1713c-0.78355 0-0.89549 0-1.2313-0.056-0.55968-0.056-0.72758-0.11194-0.72758-0.55968 0-0.16791 0-0.27984 0.27984-1.2873l3.8058-15.223h5.5408c4.7013 0 4.7013 1.1753 4.7013 2.5745 0 0.39177 0 1.0634-0.33581 2.7424-0.11194 0.27984-0.16791 0.44774-0.16791 0.61565 0 0.27984 0.16791 0.61564 0.67162 0.61564 0.44774 0 0.61565-0.27984 0.83952-1.1194l3.1902-13.041c0-0.33581-0.27984-0.67162-0.67162-0.67162-0.50371 0-0.61565 0.33581-0.78355 1.0634-1.1753 4.1976-2.1828 5.4849-7.2758 5.4849h-5.261l3.3581-13.432c0.50371-1.9589 0.55968-2.1828 3.0223-2.1828h7.8355c6.8281 0 8.5071 1.6231 8.5071 6.2124 0 1.3432 0 1.4552-0.22387 2.9103 0 0.33581-0.056 0.72759-0.056 1.0074 0 0.3358 0.16791 0.67161 0.67162 0.67161 0.55968 0 0.67162-0.33581 0.78355-1.3992l1.0634-9.6265c0.16791-1.5111-0.11193-1.5111-1.5111-1.5111h-28.152c-1.0634 0-1.679 0-1.679 1.1194 0 0.61565 0.50372 0.61565 1.5671 0.61565 2.0708 0 3.6379 0 3.6379 1.0074 0 0.22387 0 0.33581-0.27984 1.3432l-7.3318 29.495c-0.55968 2.1828-0.67162 2.6305-5.0931 2.6305-0.95145 0-1.5671 0-1.5671 1.0634 0 0.67161 0.50371 0.67161 1.5671 0.67161h28.935c1.2873 0 1.3432-0.056 1.735-0.95145z"/>
   <path d="m352.93 528.43h-1.2873c-0.11194 0.83952-0.50372 3.1902-1.0074 3.526-0.33581 0.27984-3.3581 0.27984-3.8618 0.27984h-7.2199c4.1416-3.6379 5.4849-4.7573 7.8355-6.5482 2.8544-2.3507 5.5408-4.7573 5.5408-8.4512 0-4.7013-4.0857-7.6116-9.1228-7.6116-4.8132 0-8.1154 3.414-8.1154 6.996 0 1.9589 1.679 2.1828 2.0708 2.1828 0.95146 0 2.0708-0.67161 2.0708-2.0708 0-0.72759-0.27984-2.0708-2.2947-2.0708 1.2313-2.7984 3.8618-3.6379 5.7087-3.6379 3.8618 0 5.9326 3.0223 5.9326 6.2124 0 3.414-2.4066 6.1005-3.6939 7.4997l-9.4026 9.2907c-0.39177 0.33581-0.39177 0.39178-0.39177 1.5111h16.119z"/>
   <path d="m407.56 514.38h0.27984l0.1679-0.056h0.44788l0.11193-0.056h0.112l0.056-0.056h0.11193l0.11194-0.11194h0.056l0.22387-0.22387v-0.056h0.056v-0.112l0.056-0.056v-0.224l0.056-0.056v-0.112c0-1.1194-1.0634-1.1194-1.8469-1.1194h-30.391c-0.78355 0-1.8469 0-1.8469 1.1194s1.0634 1.1194 1.8469 1.1194z"/>
   <path d="m465.93 514.21v-0.112l0.056-0.056v-0.056l0.056-0.056v-0.112l0.056-0.056v-0.112h0.056v-0.168l0.056-0.056c0-0.056 0-0.61565-0.67161-0.61565-0.50372 0-0.61565 0.33581-0.72759 0.67161-3.6379 8.2273-5.7087 11.977-15.223 11.977h-8.1713c-0.78355 0-0.89549 0-1.2313-0.056-0.55968-0.056-0.72758-0.11194-0.72758-0.55968 0-0.16791 0-0.27984 0.27984-1.2873l3.8058-15.223h5.5408c4.7013 0 4.7013 1.1753 4.7013 2.5745 0 0.39177 0 1.0634-0.33581 2.7424-0.11194 0.27984-0.16791 0.44774-0.16791 0.61565 0 0.27984 0.16791 0.61564 0.67162 0.61564 0.44774 0 0.61565-0.27984 0.83952-1.1194l3.1902-13.041c0-0.33581-0.27984-0.67162-0.67162-0.67162-0.50371 0-0.61565 0.33581-0.78355 1.0634-1.1753 4.1976-2.1828 5.4849-7.2758 5.4849h-5.261l3.3581-13.432c0.50371-1.9589 0.55968-2.1828 3.0223-2.1828h7.8355c6.8281 0 8.5071 1.6231 8.5071 6.2124 0 1.3432 0 1.4552-0.22387 2.9103 0 0.33581-0.056 0.72759-0.056 1.0074 0 0.3358 0.16791 0.67161 0.67162 0.67161 0.55968 0 0.67162-0.33581 0.78355-1.3992l1.0634-9.6265c0.16791-1.5111-0.11193-1.5111-1.5111-1.5111h-28.152c-1.0634 0-1.679 0-1.679 1.1194 0 0.61565 0.50372 0.61565 1.5671 0.61565 2.0708 0 3.6379 0 3.6379 1.0074 0 0.22387 0 0.33581-0.27984 1.3432l-7.3318 29.495c-0.55968 2.1828-0.67162 2.6305-5.0931 2.6305-0.95145 0-1.5671 0-1.5671 1.0634 0 0.67161 0.50371 0.67161 1.5671 0.67161h28.935c1.2873 0 1.3432-0.056 1.735-0.95145z"/>
   <path d="m480.71 510.69v-0.336h-0.056v-0.336l-0.056-0.056v-0.112h-0.056v-0.056h-0.056v-0.056h-0.056v-0.056h-0.168l-0.056-0.056h-0.672c-2.5186 2.4626-6.0446 2.5186-7.6676 2.5186v1.3992c0.95146 0 3.526 0 5.6528-1.1194v19.925c0 1.2873 0 1.791-3.9178 1.791h-1.4552v1.3992c0.72758-0.056 5.4849-0.16791 6.94-0.16791 1.2313 0 6.1005 0.11194 6.996 0.16791v-1.3992h-1.5111c-3.8618 0-3.8618-0.50372-3.8618-1.791z"/>
   <path d="m546.36 508.95h0.78359l0.056-0.056h0.22393l0.056-0.056h0.11193l0.056-0.056h0.056l0.056-0.056h0.056l0.11193-0.056 0.16791-0.16791v-0.056l0.056-0.056v-0.056h0.056v-0.112l0.056-0.056v-0.336c0-1.1194-1.0634-1.1194-1.791-1.1194h-33.413c-0.78355 0-1.847 0-1.847 1.1194s1.0634 1.1194 1.9029 1.1194z"/>
   <path d="m546.47 519.75h0.72775l0.11193-0.056h0.22394l0.056-0.056h0.056l0.056-0.056h0.056l0.11193-0.056 0.056-0.056h0.056v-0.056l0.11194-0.11193v-0.056h0.056v-0.056l0.056-0.056v-0.112l0.056-0.056v-0.336c0-1.1194-1.0634-1.1194-1.9029-1.1194h-33.245c-0.83952 0-1.9029 0-1.9029 1.1194s1.0634 1.1194 1.847 1.1194z"/>
   <path d="m591.64 488.24-0.11194-0.11194v-0.056l-0.056-0.056v-0.056l-0.056-0.056v-0.056l-0.11194-0.11194v-0.056h-0.056v-0.056l-0.11193-0.11194h-0.056v-0.056h-0.056l-0.056-0.056h-0.056v-0.056h-0.112l-0.056-0.056h-0.33594l-0.056-0.056h-0.16794c-0.95145 0-1.0634 0.27984-1.4552 1.0074l-0.3358 4.5894 14.999 30.111h-30.055l15.055-30.111 0.3358-4.5894-18.861 37.834c-0.27984 0.50372-0.27984 0.61565-0.27984 0.67162 0 0.44774 0.33581 0.44774 1.2313 0.44774h38.674c0.89549 0 1.2313 0 1.2313-0.44774 0-0.056 0-0.1679-0.27984-0.67162z"/>
   <path d="m652.92 514.21v-0.056l0.056-0.056v-0.056l0.056-0.056v-0.112l0.056-0.056v-0.112h0.056v-0.168h0.056v-0.112c0-0.056 0-0.61565-0.67162-0.61565-0.50371 0-0.61564 0.33581-0.72758 0.67161-3.6379 8.2273-5.7087 11.977-15.223 11.977h-8.1713c-0.72759 0-0.83952 0-1.1753-0.056-0.55968-0.056-0.72759-0.11194-0.72759-0.55968 0-0.16791 0-0.27984 0.27984-1.2873l3.7499-15.223h5.5408c4.7573 0 4.7573 1.1753 4.7573 2.5745 0 0.39177 0 1.0634-0.39177 2.7424-0.11194 0.27984-0.16791 0.44774-0.16791 0.61565 0 0.27984 0.22387 0.61564 0.72759 0.61564 0.44774 0 0.61564-0.27984 0.83952-1.1194l3.1342-13.041c0-0.33581-0.27984-0.67162-0.67161-0.67162-0.50371 0-0.55968 0.33581-0.72759 1.0634-1.1753 4.1976-2.1828 5.4849-7.3318 5.4849h-5.261l3.3581-13.432c0.50372-1.9589 0.55968-2.1828 3.0223-2.1828h7.8355c6.8281 0 8.5071 1.6231 8.5071 6.2124 0 1.3432 0 1.4552-0.22387 2.9103 0 0.33581-0.056 0.72759-0.056 1.0074 0 0.3358 0.16791 0.67161 0.67162 0.67161 0.61565 0 0.67161-0.33581 0.78355-1.3992l1.1194-9.6265c0.1679-1.5111-0.11194-1.5111-1.5111-1.5111h-28.152c-1.1194 0-1.679 0-1.679 1.1194 0 0.61565 0.50371 0.61565 1.5671 0.61565 2.0148 0 3.582 0 3.582 1.0074 0 0.22387 0 0.33581-0.27984 1.3432l-7.3318 29.495c-0.55968 2.1828-0.67162 2.6305-5.0931 2.6305-0.95146 0-1.5671 0-1.5671 1.0634 0 0.67161 0.50371 0.67161 1.5671 0.67161h28.935c1.2873 0 1.3432-0.056 1.735-0.95145z"/>
   <path d="m711.63 508.95h0.72762l0.056-0.056h0.22394l0.056-0.056h0.11194l0.056-0.056h0.056l0.056-0.056h0.056l0.11194-0.056 0.1679-0.16791v-0.056l0.056-0.056v-0.056h0.056v-0.112l0.056-0.056v-0.336c0-1.1194-1.0634-1.1194-1.847-1.1194h-33.357c-0.78355 0-1.8469 0-1.8469 1.1194s1.0634 1.1194 1.9029 1.1194z"/>
   <path d="m711.63 519.75h0.78368l0.11194-0.056h0.22393l0.056-0.056h0.056l0.056-0.056h0.056l0.11194-0.056 0.056-0.056h0.056v-0.056l0.11193-0.11193v-0.056h0.056v-0.056l0.056-0.056v-0.112l0.056-0.056v-0.336c0-1.1194-1.0634-1.1194-1.847-1.1194h-33.301c-0.83952 0-1.9029 0-1.9029 1.1194s1.0634 1.1194 1.8469 1.1194z"/>
   <path d="m748.12 489.08v-0.224l-0.056-0.056v-0.056h-0.056v-0.056h-0.056v-0.056h-0.056v-0.056h-0.112v-0.056h-0.168l-0.056-0.056h-0.112c-1.2873 0-5.3729 0.44774-6.8281 0.55968-0.44775 0.056-1.0634 0.11193-1.0634 1.1194 0 0.67161 0.50372 0.67161 1.3432 0.67161 2.6865 0 2.7984 0.39178 2.7984 0.95146l-0.16791 1.1194-8.1154 32.126c-0.22387 0.78355-0.22387 0.89549-0.22387 1.2313 0 1.2873 1.1194 1.5671 1.6231 1.5671 0.89549 0 1.791-0.67161 2.0708-1.4552l1.0634-4.2536c0.39178-1.679 0.83952-3.3581 1.2313-5.0371 0.3358-1.2313 0.67161-2.4066 0.95145-3.6939 0.11194-0.33581 0.55968-2.1828 0.61565-2.5186 0.1679-0.50371 1.9029-3.6379 3.8058-5.1491 1.2313-0.89549 2.9103-1.9589 5.317-1.9589 2.4066 0 3.0223 1.9029 3.0223 3.9178 0 3.0223-2.1268 9.0668-3.47 12.481-0.44774 1.2873-0.72758 1.9589-0.72758 3.0782 0 2.6305 1.9589 4.5894 4.5894 4.5894 5.261 0 7.2758-8.1713 7.2758-8.6191 0-0.55968-0.50371-0.55968-0.61565-0.55968-0.55968 0-0.55968 0.1679-0.83952 1.0074-0.83952 2.9663-2.6305 6.94-5.7087 6.94-0.95146 0-1.3432-0.55968-1.3432-1.847 0-1.3992 0.50371-2.7424 1.0074-3.9737 0.89549-2.4066 3.414-9.0108 3.414-12.257 0-3.6379-2.2387-5.9886-6.4363-5.9886-3.526 0-6.1565 1.735-8.2273 4.3095z"/>
   <path d="m776.72 503.13v-0.224l-0.056-0.056v-0.056h-0.056v-0.056h-0.056v-0.056h-0.056v-0.056h-0.112v-0.056h-0.224l-0.056-0.056h-0.112c-1.2313 0-5.317 0.44774-6.7721 0.55968-0.44774 0.056-1.0634 0.11193-1.0634 1.1194 0 0.67161 0.50371 0.67161 1.3432 0.67161 2.6865 0 2.7984 0.39178 2.7984 0.95146 0 0.39177-0.67161 3.0223-1.0634 4.5334l-3.414 13.656c-0.22387 0.83952-0.61564 2.4066-0.61564 2.5186 0 0.61565 0.55968 0.67161 0.89548 0.67161h0.78356c3.9178-0.67161 9.9623-2.8544 15.727-8.2273 7.3318-6.8281 8.843-14.44 8.843-14.943 0-0.95145-0.67162-1.5111-1.6231-1.5111-0.44775 0-1.679 0.22387-2.1268 1.8469-3.582 12.649-12.089 18.917-18.413 20.988z"/>
   <path d="m394.43 105.79v-0.1154l0.0577-0.0577v-0.0577l0.0577-0.0577v-0.1154l0.0577-0.0577v-0.1154h0.0577v-0.1731l0.0577-0.0577c0-0.0577 0-0.63431-0.69197-0.63431-0.51898 0-0.63431 0.34599-0.74963 0.69197-3.7482 8.4766-5.8817 12.34-15.685 12.34h-8.4191c-0.80729 0-0.92262 0-1.2686-0.0577-0.57664-0.0577-0.74964-0.11532-0.74964-0.57664 0-0.17299 0-0.28832 0.28832-1.3263l3.9212-15.685h5.7087c4.8438 0 4.8438 1.2109 4.8438 2.6525 0 0.40365 0 1.0956-0.34599 2.8255-0.11532 0.28832-0.17299 0.46132-0.17299 0.63431 0 0.28832 0.17299 0.6343 0.69197 0.6343 0.46131 0 0.6343-0.28832 0.86496-1.1533l3.2868-13.436c0-0.34598-0.28832-0.69197-0.69197-0.69197-0.51898 0-0.6343 0.34598-0.8073 1.0956-1.2109 4.3248-2.2489 5.6511-7.4963 5.6511h-5.4204l3.4598-13.839c0.51897-2.0182 0.57664-2.2489 3.1138-2.2489h8.073c7.035 0 8.7649 1.6723 8.7649 6.4007 0 1.3839 0 1.4993-0.23065 2.9985 0 0.34598-0.0577 0.74963-0.0577 1.038 0 0.34598 0.17299 0.69197 0.69197 0.69197 0.57664 0 0.69197-0.34598 0.8073-1.4416l1.0956-9.9182c0.17299-1.5569-0.11533-1.5569-1.5569-1.5569h-29.005c-1.0956 0-1.7299 0-1.7299 1.1533 0 0.6343 0.51898 0.6343 1.6146 0.6343 2.1336 0 3.7482 0 3.7482 1.038 0 0.23066 0 0.34598-0.28832 1.3839l-7.554 30.389c-0.57664 2.2489-0.69197 2.7102-5.2474 2.7102-0.98029 0-1.6146 0-1.6146 1.0956 0 0.69197 0.51898 0.69197 1.6146 0.69197h29.812c1.3263 0 1.3839-0.0577 1.7876-0.98029z"/>
   <path d="m416.4 120.44h-1.3263c-0.11533 0.86496-0.51898 3.2868-1.038 3.6328-0.34599 0.28832-3.4598 0.28832-3.9788 0.28832h-7.4387c4.2671-3.7482 5.6511-4.9014 8.073-6.7467 2.9409-2.4219 5.7087-4.9014 5.7087-8.7073 0-4.8438-4.2095-7.8423-9.3992-7.8423-4.9591 0-8.3613 3.5175-8.3613 7.208 0 2.0182 1.7299 2.2489 2.1336 2.2489 0.98028 0 2.1336-0.69197 2.1336-2.1336 0-0.74963-0.28832-2.1336-2.3642-2.1336 1.2686-2.8832 3.9788-3.7482 5.8817-3.7482 3.9788 0 6.1124 3.1138 6.1124 6.4007 0 3.5175-2.4796 6.2854-3.8058 7.727l-9.6876 9.5722c-0.40365 0.34598-0.40365 0.40365-0.40365 1.5569h16.607z"/>
   <path d="m389.37 368.78v-0.112l0.056-0.056v-0.056l0.056-0.056v-0.112l0.056-0.056v-0.112h0.056v-0.168l0.056-0.056c0-0.056 0-0.61564-0.67161-0.61564-0.5037 0-0.61564 0.3358-0.72757 0.67161-3.6379 8.2272-5.7087 11.977-15.223 11.977h-8.1713c-0.78355 0-0.89548 0-1.2313-0.056-0.55967-0.056-0.72758-0.11194-0.72758-0.55968 0-0.1679 0-0.27983 0.27984-1.2872l3.8058-15.223h5.5408c4.7013 0 4.7013 1.1753 4.7013 2.5745 0 0.39178 0 1.0634-0.33581 2.7424-0.11193 0.27984-0.1679 0.44774-0.1679 0.61565 0 0.27983 0.1679 0.61564 0.67161 0.61564 0.44774 0 0.61564-0.27984 0.83951-1.1194l3.1902-13.04c0-0.33581-0.27983-0.67161-0.67161-0.67161-0.5037 0-0.61564 0.3358-0.78354 1.0634-1.1753 4.1976-2.1827 5.4848-7.2758 5.4848h-5.261l3.358-13.432c0.50371-1.9589 0.55967-2.1827 3.0222-2.1827h7.8354c6.828 0 8.5071 1.6231 8.5071 6.2124 0 1.3432 0 1.4552-0.22387 2.9103 0 0.33581-0.056 0.72758-0.056 1.0074 0 0.33581 0.1679 0.67161 0.67161 0.67161 0.55967 0 0.67161-0.3358 0.78354-1.3992l1.0634-9.6264c0.1679-1.5111-0.11194-1.5111-1.5111-1.5111h-28.152c-1.0634 0-1.679 0-1.679 1.1194 0 0.61564 0.50371 0.61564 1.5671 0.61564 2.0708 0 3.6379 0 3.6379 1.0074 0 0.22387 0 0.3358-0.27984 1.3432l-7.3318 29.495c-0.55968 2.1827-0.67161 2.6305-5.093 2.6305-0.95145 0-1.5671 0-1.5671 1.0634 0 0.67161 0.50371 0.67161 1.5671 0.67161h28.935c1.2872 0 1.3432-0.056 1.735-0.95145l5.149-12.033z"/>
   <path d="m404.14 365.26v-0.336h-0.056v-0.336l-0.056-0.056v-0.112h-0.056v-0.056h-0.056v-0.056h-0.056v-0.056h-0.168l-0.056-0.056h-0.672c-2.5185 2.4626-6.0445 2.5185-7.6676 2.5185v1.3992c0.95145 0 3.526 0 5.6527-1.1194v19.924c0 1.2872 0 1.791-3.9177 1.791h-1.4552v1.3992c0.72757-0.056 5.4848-0.16791 6.94-0.16791 1.2313 0 6.1005 0.11194 6.996 0.16791v-1.3992h-1.5111c-3.8618 0-3.8618-0.50371-3.8618-1.791v-21.659z"/>
   <path d="m331.07 232.81-0.112-0.112v-0.056l-0.056-0.056v-0.056l-0.056-0.056v-0.056l-0.11194-0.11194v-0.056h-0.056v-0.056l-0.112-0.112h-0.056v-0.056h-0.056l-0.056-0.056h-0.056v-0.056h-0.112l-0.056-0.056h-0.33593l-0.056-0.056h-0.16793c-0.95145 0-1.0634 0.27983-1.4552 1.0074l-0.3358 4.5893 14.999 30.111h-30.055l15.055-30.111 0.3358-4.5893-18.861 37.834c-0.27984 0.50371-0.27984 0.61564-0.27984 0.67161 0 0.44774 0.3358 0.44774 1.2313 0.44774h38.674c0.89548 0 1.2313 0 1.2313-0.44774 0-0.056 0-0.1679-0.27984-0.67161l-18.805-37.834z"/>
   <path d="m392.35 258.78v-0.056l0.056-0.056v-0.056l0.056-0.056v-0.112l0.056-0.056v-0.112h0.056v-0.168h0.056v-0.112c0-0.056 0-0.61564-0.67161-0.61564-0.50371 0-0.61565 0.3358-0.72758 0.67161-3.6379 8.2272-5.7087 11.977-15.223 11.977h-8.1713c-0.72758 0-0.83951 0-1.1753-0.056-0.55967-0.056-0.72758-0.11194-0.72758-0.55968 0-0.1679 0-0.27983 0.27984-1.2872l3.7498-15.223h5.5408c4.7572 0 4.7572 1.1753 4.7572 2.5745 0 0.39178 0 1.0634-0.39178 2.7424-0.11193 0.27984-0.1679 0.44774-0.1679 0.61565 0 0.27983 0.22387 0.61564 0.72758 0.61564 0.44774 0 0.61564-0.27984 0.83951-1.1194l3.1342-13.04c0-0.33581-0.27984-0.67161-0.67162-0.67161-0.5037 0-0.55967 0.3358-0.72757 1.0634-1.1753 4.1976-2.1827 5.4848-7.3318 5.4848h-5.261l3.358-13.432c0.50371-1.9589 0.55968-2.1827 3.0222-2.1827h7.8355c6.828 0 8.5071 1.6231 8.5071 6.2124 0 1.3432 0 1.4552-0.22387 2.9103 0 0.33581-0.056 0.72758-0.056 1.0074 0 0.33581 0.1679 0.67161 0.67161 0.67161 0.61564 0 0.67161-0.3358 0.78354-1.3992l1.1194-9.6264c0.16791-1.5111-0.11193-1.5111-1.5111-1.5111h-28.152c-1.1194 0-1.679 0-1.679 1.1194 0 0.61564 0.50371 0.61564 1.5671 0.61564 2.0148 0 3.5819 0 3.5819 1.0074 0 0.22387 0 0.3358-0.27984 1.3432l-7.3318 29.495c-0.55967 2.1827-0.67161 2.6305-5.093 2.6305-0.95145 0-1.5671 0-1.5671 1.0634 0 0.67161 0.50371 0.67161 1.5671 0.67161h28.935c1.2872 0 1.3432-0.056 1.735-0.95145l5.149-12.033z"/>
  </g>
 </g>
 <text transform="scale(1.0186 .98174)" x="549.82611" y="25.271135" fill="#000000" font-family="sans-serif" font-size="25.333px" font-weight="bold" stroke-width="1px" text-align="center" text-anchor="middle" style="font-variant-caps:normal;font-variant-east-asian:normal;font-variant-ligatures:normal;font-variant-numeric:normal;line-height:100%" xml:space="preserve"><tspan x="549.82611" y="25.271135">During</tspan><tspan x="549.82611" y="50.604233">emission</tspan></text>
</svg>